# Energy in atomic unit (1 Eh = 2625.499640 kJ/mol)
# -------------------------------------------------
# step         Total energy           Kinetic energy         Potential energy         Coulomb energy       van_der_Waals energy        Total energy         Thermostat energy       Coulomb LR energy      Coulomb keq0 energy      Coulomb SR energy      Coulomb self energy   Coulomb molecule energy     Lennard-Jones energy     L-J molecule energy    
       0 -2.943830544492820E+001  1.938988623999749E+000 -3.137729406892795E+001 -2.712610185661677E+001  -4.251192212311173E+000 -2.943830544492820E+001  0.000000000000000E+000  6.976253433569238E+000  3.041629815163560E+000  4.673810531847358E-002 -2.840556941018020E+001 -8.785153800487851E+000   -5.519500330698513E+000  1.268308118387343E+000 
       1 -2.942778346727368E+001  1.949423426014926E+000 -3.137724106861727E+001 -2.712571087644174E+001  -4.251530192175535E+000 -2.942781764260235E+001  3.417532866401514E-005  6.976473651500322E+000  3.041614164380462E+000  4.692451735337794E-002 -2.840556941018020E+001 -8.785153799495706E+000   -5.519475510953825E+000  1.267945318778291E+000 
