# Energy in atomic unit (1 Eh = 2625.499640 kJ/mol)
# -------------------------------------------------
# step         Total energy            Kinetic energy          Potential energy      van_der_Waals energy        Coulomb energy         Coulomb LR energy        Coulomb SR energy       Coulomb keq0 energy      Coulomb self energy        Fumi-Tosi energy
      0 -1.395723264458767E+002   1.061878991688794E+001  -1.501911163627647E+002   1.882366944729375E+001  -1.690147858100584E+002   2.406325221492700E-001  -9.835936353698143E+001   8.321665918973054E-001  -7.172822138712355E+001   1.882366944729375E+001 
      1 -1.395723549476951E+002   1.074591542714953E+001  -1.503182703748446E+002   1.882491189640166E+001  -1.691431822712463E+002   2.374767531367644E-001  -9.838558051019605E+001   8.309824415649132E-001  -7.182606095575193E+001   1.882491189640166E+001 
