# Pressure of the system
# ----------------
# Pressure:   1 bar = 3.3988273773641905e-09 ua
# step       Total pressure           xx component            yy component            zz component            xy component            xz component            yz component            LR correction     
       0  1.251346430565757E-005  2.107037119142960E-005  8.032343446579133E-006  9.117533969091190E-006  2.084702606298839E-007 -3.212614852041184E-006 -2.180563783996938E-006 -2.266185633757367E-007
