ITEM: TIMESTEP
       0
ITEM: NUMBER OF ATOMS
     256
ITEM: BOX BOUNDS
    0.000   25.560
    0.000   25.560
    0.000   25.560
ITEM: ATOMS element id molid x y z q vx vy vz
Cl                   1             0          0.855   25.176   21.649         -1.000    0.000    0.000    0.000
Cl                   2             0         24.748    0.323    0.405         -1.000    0.000    0.000    0.000
Cl                   3             0         25.401    2.418   13.693         -1.000    0.000    0.000    0.000
Cl                   4             0          2.251    2.079   18.654         -1.000    0.000    0.000    0.000
Cl                   5             0         23.324    8.524    4.920         -1.000    0.000    0.000    0.000
Cl                   6             0         24.881    8.312    8.264         -1.000    0.000    0.000    0.000
Cl                   7             0          1.372    7.588   13.527         -1.000    0.000    0.000    0.000
Cl                   8             0          1.036    9.675   17.272         -1.000    0.000    0.000    0.000
Cl                   9             0         21.524    9.579    1.913         -1.000    0.000    0.000    0.000
Cl                  10             0         22.264   17.048    6.702         -1.000    0.000    0.000    0.000
Cl                  11             0         23.445   14.896   13.959         -1.000    0.000    0.000    0.000
Cl                  12             0          1.367   16.598   23.532         -1.000    0.000    0.000    0.000
Cl                  13             0         21.255   22.580   23.688         -1.000    0.000    0.000    0.000
Cl                  14             0          1.978   20.224    5.710         -1.000    0.000    0.000    0.000
Cl                  15             0          0.175   17.422    7.150         -1.000    0.000    0.000    0.000
Cl                  16             0          2.658   18.021   20.455         -1.000    0.000    0.000    0.000
Cl                  17             0          6.970    7.106    0.599         -1.000    0.000    0.000    0.000
Cl                  18             0          4.715    4.757    7.642         -1.000    0.000    0.000    0.000
Cl                  19             0          1.922   24.989   11.127         -1.000    0.000    0.000    0.000
Cl                  20             0          4.806   24.143   18.733         -1.000    0.000    0.000    0.000
Cl                  21             0          5.502   11.853    1.544         -1.000    0.000    0.000    0.000
Cl                  22             0          9.321    3.341    9.880         -1.000    0.000    0.000    0.000
Cl                  23             0          6.071    8.940   12.728         -1.000    0.000    0.000    0.000
Cl                  24             0          8.960    6.170   15.824         -1.000    0.000    0.000    0.000
Cl                  25             0          5.558   15.879    1.299         -1.000    0.000    0.000    0.000
Cl                  26             0          5.976   10.040    7.860         -1.000    0.000    0.000    0.000
Cl                  27             0          8.985    8.610    9.314         -1.000    0.000    0.000    0.000
Cl                  28             0          7.890   15.300   11.073         -1.000    0.000    0.000    0.000
Cl                  29             0          2.784   22.324   24.366         -1.000    0.000    0.000    0.000
Cl                  30             0          7.367   17.385    8.451         -1.000    0.000    0.000    0.000
Cl                  31             0          5.213   23.605   12.483         -1.000    0.000    0.000    0.000
Cl                  32             0          6.647   18.439   18.619         -1.000    0.000    0.000    0.000
Cl                  33             0         12.534    3.274   25.405         -1.000    0.000    0.000    0.000
Cl                  34             0          6.497    5.023    4.349         -1.000    0.000    0.000    0.000
Cl                  35             0         12.718   22.466   17.147         -1.000    0.000    0.000    0.000
Cl                  36             0         11.514   25.282   22.319         -1.000    0.000    0.000    0.000
Cl                  37             0         13.894    7.175    6.382         -1.000    0.000    0.000    0.000
Cl                  38             0         11.635    3.155    5.194         -1.000    0.000    0.000    0.000
Cl                  39             0         15.100    3.031   11.771         -1.000    0.000    0.000    0.000
Cl                  40             0         10.994    2.025   17.697         -1.000    0.000    0.000    0.000
Cl                  41             0         10.626    7.668    3.828         -1.000    0.000    0.000    0.000
Cl                  42             0         13.704   13.163    9.197         -1.000    0.000    0.000    0.000
Cl                  43             0         13.616   14.772   14.206         -1.000    0.000    0.000    0.000
Cl                  44             0         14.534   15.991   22.105         -1.000    0.000    0.000    0.000
Cl                  45             0         13.422   17.833    1.171         -1.000    0.000    0.000    0.000
Cl                  46             0         13.579   19.018    5.521         -1.000    0.000    0.000    0.000
Cl                  47             0         14.422   18.236   13.662         -1.000    0.000    0.000    0.000
Cl                  48             0         11.561   14.944   18.350         -1.000    0.000    0.000    0.000
Cl                  49             0         21.941   18.189   22.780         -1.000    0.000    0.000    0.000
Cl                  50             0         15.771   22.386    7.237         -1.000    0.000    0.000    0.000
Cl                  51             0         20.064   24.485   19.234         -1.000    0.000    0.000    0.000
Cl                  52             0         14.559   22.411   13.572         -1.000    0.000    0.000    0.000
Cl                  53             0         19.378    3.470   24.576         -1.000    0.000    0.000    0.000
Cl                  54             0         16.886    9.923    6.557         -1.000    0.000    0.000    0.000
Cl                  55             0         22.519    3.627   10.231         -1.000    0.000    0.000    0.000
Cl                  56             0         12.158    3.124   21.218         -1.000    0.000    0.000    0.000
Cl                  57             0         20.811   11.037   23.635         -1.000    0.000    0.000    0.000
Cl                  58             0         18.981   14.449    6.040         -1.000    0.000    0.000    0.000
Cl                  59             0         15.430   10.774   16.066         -1.000    0.000    0.000    0.000
Cl                  60             0         18.004   15.518   16.064         -1.000    0.000    0.000    0.000
Cl                  61             0         18.642   14.338   23.410         -1.000    0.000    0.000    0.000
Cl                  62             0         22.332   19.350    9.834         -1.000    0.000    0.000    0.000
Cl                  63             0         16.264   19.533    9.617         -1.000    0.000    0.000    0.000
Cl                  64             0         21.001   18.120   17.902         -1.000    0.000    0.000    0.000
Cl                  65             0          2.988    5.463    3.677         -1.000    0.000    0.000    0.000
Cl                  66             0         22.684    0.557    6.831         -1.000    0.000    0.000    0.000
Cl                  67             0         20.223    1.439   11.922         -1.000    0.000    0.000    0.000
Cl                  68             0          0.976    5.208   21.132         -1.000    0.000    0.000    0.000
Cl                  69             0          3.573   16.801    4.936         -1.000    0.000    0.000    0.000
Cl                  70             0          1.844   15.145   12.753         -1.000    0.000    0.000    0.000
Cl                  71             0          1.100   15.174   17.672         -1.000    0.000    0.000    0.000
Cl                  72             0          0.965   13.117   21.492         -1.000    0.000    0.000    0.000
Cl                  73             0          0.169   13.398    0.930         -1.000    0.000    0.000    0.000
Cl                  74             0          1.118   10.789   11.800         -1.000    0.000    0.000    0.000
Cl                  75             0         19.588   11.356   12.408         -1.000    0.000    0.000    0.000
Cl                  76             0         25.007   21.690   23.372         -1.000    0.000    0.000    0.000
Cl                  77             0         23.460   20.470    0.916         -1.000    0.000    0.000    0.000
Cl                  78             0          0.367   22.438    9.140         -1.000    0.000    0.000    0.000
Cl                  79             0         24.596   18.589   15.446         -1.000    0.000    0.000    0.000
Cl                  80             0         22.446   21.297   19.630         -1.000    0.000    0.000    0.000
Cl                  81             0          1.389   10.178    1.442         -1.000    0.000    0.000    0.000
Cl                  82             0          2.558    7.779    9.253         -1.000    0.000    0.000    0.000
Cl                  83             0          7.414    2.076   15.829         -1.000    0.000    0.000    0.000
Cl                  84             0          4.298    9.076   24.115         -1.000    0.000    0.000    0.000
Cl                  85             0          5.057    8.667    4.397         -1.000    0.000    0.000    0.000
Cl                  86             0         12.497   10.398    7.586         -1.000    0.000    0.000    0.000
Cl                  87             0         11.517   11.313   12.282         -1.000    0.000    0.000    0.000
Cl                  88             0          8.212   11.368   23.015         -1.000    0.000    0.000    0.000
Cl                  89             0          6.291   13.553    6.508         -1.000    0.000    0.000    0.000
Cl                  90             0         10.502   17.727   12.536         -1.000    0.000    0.000    0.000
Cl                  91             0          6.921   18.808   12.654         -1.000    0.000    0.000    0.000
Cl                  92             0         10.869   19.410   22.822         -1.000    0.000    0.000    0.000
Cl                  93             0          4.186   23.306    2.588         -1.000    0.000    0.000    0.000
Cl                  94             0          5.327    0.989    8.243         -1.000    0.000    0.000    0.000
Cl                  95             0          3.371   21.269   15.855         -1.000    0.000    0.000    0.000
Cl                  96             0          6.412   25.412    1.424         -1.000    0.000    0.000    0.000
Cl                  97             0         19.485    1.324    3.801         -1.000    0.000    0.000    0.000
Cl                  98             0         16.456    4.397    5.400         -1.000    0.000    0.000    0.000
Cl                  99             0         12.278    4.609   15.310         -1.000    0.000    0.000    0.000
Cl                 100             0         15.640    4.499   22.334         -1.000    0.000    0.000    0.000
Cl                 101             0         19.355   12.902    2.199         -1.000    0.000    0.000    0.000
Cl                 102             0         18.995    6.530   13.605         -1.000    0.000    0.000    0.000
Cl                 103             0         13.633    5.966   17.927         -1.000    0.000    0.000    0.000
Cl                 104             0          9.640   11.996   19.833         -1.000    0.000    0.000    0.000
Cl                 105             0         13.578   12.578    4.408         -1.000    0.000    0.000    0.000
Cl                 106             0         13.208   16.999    9.137         -1.000    0.000    0.000    0.000
Cl                 107             0         11.796   10.746   16.834         -1.000    0.000    0.000    0.000
Cl                 108             0         12.500   13.705    0.740         -1.000    0.000    0.000    0.000
Cl                 109             0         10.849    0.065    1.559         -1.000    0.000    0.000    0.000
Cl                 110             0         11.122   25.177    9.295         -1.000    0.000    0.000    0.000
Cl                 111             0          7.429   23.380   15.665         -1.000    0.000    0.000    0.000
Cl                 112             0         14.450   18.318   17.953         -1.000    0.000    0.000    0.000
Cl                 113             0         18.491   20.886   25.475         -1.000    0.000    0.000    0.000
Cl                 114             0         18.570    1.705    8.224         -1.000    0.000    0.000    0.000
Cl                 115             0         23.768    3.312   19.841         -1.000    0.000    0.000    0.000
Cl                 116             0         15.862   25.513   20.289         -1.000    0.000    0.000    0.000
Cl                 117             0         21.587    4.557    2.463         -1.000    0.000    0.000    0.000
Cl                 118             0         20.611   11.145    5.157         -1.000    0.000    0.000    0.000
Cl                 119             0         22.409    7.038   19.432         -1.000    0.000    0.000    0.000
Cl                 120             0         12.688   12.530   22.540         -1.000    0.000    0.000    0.000
Cl                 121             0         18.771   17.888    3.769         -1.000    0.000    0.000    0.000
Cl                 122             0         19.860   19.149    7.404         -1.000    0.000    0.000    0.000
Cl                 123             0         19.325    9.845   16.540         -1.000    0.000    0.000    0.000
Cl                 124             0         20.852   11.381   20.058         -1.000    0.000    0.000    0.000
Cl                 125             0         20.248   23.398    3.132         -1.000    0.000    0.000    0.000
Cl                 126             0         18.253   23.756   10.371         -1.000    0.000    0.000    0.000
Cl                 127             0         21.243   19.722   13.041         -1.000    0.000    0.000    0.000
Cl                 128             0         17.478   18.494   20.508         -1.000    0.000    0.000    0.000
Cl                 129             0          0.206    3.248    1.333         -1.000    0.000    0.000    0.000
Cl                 130             0          4.673    3.946   11.941         -1.000    0.000    0.000    0.000
Cl                 131             0          2.884   25.499   15.610         -1.000    0.000    0.000    0.000
Cl                 132             0          5.244    2.972   21.251         -1.000    0.000    0.000    0.000
Cl                 133             0          2.153    9.800    5.970         -1.000    0.000    0.000    0.000
Cl                 134             0          5.596   12.055   10.739         -1.000    0.000    0.000    0.000
Cl                 135             0         21.221    2.836   16.392         -1.000    0.000    0.000    0.000
Cl                 136             0          2.043    9.787   20.804         -1.000    0.000    0.000    0.000
Cl                 137             0          2.998   13.388    3.647         -1.000    0.000    0.000    0.000
Cl                 138             0         24.142   14.759    9.622         -1.000    0.000    0.000    0.000
Cl                 139             0          5.916   15.176   14.378         -1.000    0.000    0.000    0.000
Cl                 140             0          7.319   15.988   21.132         -1.000    0.000    0.000    0.000
Cl                 141             0          6.368   18.865    4.469         -1.000    0.000    0.000    0.000
Cl                 142             0          3.665   23.702    7.094         -1.000    0.000    0.000    0.000
Cl                 143             0         25.362   22.122   14.521         -1.000    0.000    0.000    0.000
Cl                 144             0          5.645   19.767    0.528         -1.000    0.000    0.000    0.000
Cl                 145             0          8.357    1.687    6.559         -1.000    0.000    0.000    0.000
Cl                 146             0          6.618    1.271   11.872         -1.000    0.000    0.000    0.000
Cl                 147             0          8.460    0.059   20.669         -1.000    0.000    0.000    0.000
Cl                 148             0         15.700   24.800    3.595         -1.000    0.000    0.000    0.000
Cl                 149             0          9.386    6.517    6.536         -1.000    0.000    0.000    0.000
Cl                 150             0         12.542    6.117    9.957         -1.000    0.000    0.000    0.000
Cl                 151             0          6.623    8.966   17.001         -1.000    0.000    0.000    0.000
Cl                 152             0          7.921    7.285   21.386         -1.000    0.000    0.000    0.000
Cl                 153             0          8.088   13.403    2.549         -1.000    0.000    0.000    0.000
Cl                 154             0         10.385   14.260    7.966         -1.000    0.000    0.000    0.000
Cl                 155             0         12.381    7.702   13.371         -1.000    0.000    0.000    0.000
Cl                 156             0          9.030   15.063   24.089         -1.000    0.000    0.000    0.000
Cl                 157             0         12.033   21.656    3.291         -1.000    0.000    0.000    0.000
Cl                 158             0         10.968   24.530   12.921         -1.000    0.000    0.000    0.000
Cl                 159             0          9.151   17.408   16.038         -1.000    0.000    0.000    0.000
Cl                 160             0          8.086   22.020   22.898         -1.000    0.000    0.000    0.000
Cl                 161             0          8.683    3.535    2.301         -1.000    0.000    0.000    0.000
Cl                 162             0         11.641    2.828   12.316         -1.000    0.000    0.000    0.000
Cl                 163             0         14.191    0.572   17.105         -1.000    0.000    0.000    0.000
Cl                 164             0         13.336   21.333   20.139         -1.000    0.000    0.000    0.000
Cl                 165             0         16.277    3.450    1.596         -1.000    0.000    0.000    0.000
Cl                 166             0         16.953    5.518    9.002         -1.000    0.000    0.000    0.000
Cl                 167             0          8.468    3.934   19.095         -1.000    0.000    0.000    0.000
Cl                 168             0         11.073    6.242   24.071         -1.000    0.000    0.000    0.000
Cl                 169             0         18.698    7.514    4.386         -1.000    0.000    0.000    0.000
Cl                 170             0         19.123    8.955    9.355         -1.000    0.000    0.000    0.000
Cl                 171             0         19.030    7.284   20.252         -1.000    0.000    0.000    0.000
Cl                 172             0         13.704    8.759    1.209         -1.000    0.000    0.000    0.000
Cl                 173             0         16.905   17.475   25.340         -1.000    0.000    0.000    0.000
Cl                 174             0         12.004   20.811   10.324         -1.000    0.000    0.000    0.000
Cl                 175             0         10.031   21.119   15.017         -1.000    0.000    0.000    0.000
Cl                 176             0         19.624   14.952   19.417         -1.000    0.000    0.000    0.000
Cl                 177             0         15.082    0.132    0.005         -1.000    0.000    0.000    0.000
Cl                 178             0         23.156   23.733   10.225         -1.000    0.000    0.000    0.000
Cl                 179             0         21.976   22.312   15.763         -1.000    0.000    0.000    0.000
Cl                 180             0         24.805   24.439   17.806         -1.000    0.000    0.000    0.000
Cl                 181             0         24.102    2.444    3.852         -1.000    0.000    0.000    0.000
Cl                 182             0         25.003    5.127    6.505         -1.000    0.000    0.000    0.000
Cl                 183             0         18.472    2.437   19.527         -1.000    0.000    0.000    0.000
Cl                 184             0         25.068    7.315   23.694         -1.000    0.000    0.000    0.000
Cl                 185             0         23.775   12.785    4.563         -1.000    0.000    0.000    0.000
Cl                 186             0         20.276   15.902   10.331         -1.000    0.000    0.000    0.000
Cl                 187             0         22.988   10.544   14.199         -1.000    0.000    0.000    0.000
Cl                 188             0         22.657   14.237   23.222         -1.000    0.000    0.000    0.000
Cl                 189             0         25.071   23.750    4.453         -1.000    0.000    0.000    0.000
Cl                 190             0          4.558   20.952    9.315         -1.000    0.000    0.000    0.000
Cl                 191             0          0.034   18.483   11.068         -1.000    0.000    0.000    0.000
Cl                 192             0         24.273   17.717   19.945         -1.000    0.000    0.000    0.000
Cl                 193             0          2.815    1.816   24.062         -1.000    0.000    0.000    0.000
Cl                 194             0          0.620    2.040    8.496         -1.000    0.000    0.000    0.000
Cl                 195             0          0.406    5.313   11.101         -1.000    0.000    0.000    0.000
Cl                 196             0          5.008    6.292   19.197         -1.000    0.000    0.000    0.000
Cl                 197             0          3.598   13.579   24.331         -1.000    0.000    0.000    0.000
Cl                 198             0          1.914   13.207    8.667         -1.000    0.000    0.000    0.000
Cl                 199             0          4.522    4.824   16.296         -1.000    0.000    0.000    0.000
Cl                 200             0          3.554   11.726   15.554         -1.000    0.000    0.000    0.000
Cl                 201             0          1.808   18.326    1.693         -1.000    0.000    0.000    0.000
Cl                 202             0          3.660   16.572    8.820         -1.000    0.000    0.000    0.000
Cl                 203             0          4.029   17.216   16.298         -1.000    0.000    0.000    0.000
Cl                 204             0          6.987   13.556   17.436         -1.000    0.000    0.000    0.000
Cl                 205             0          4.506    2.936    0.879         -1.000    0.000    0.000    0.000
Cl                 206             0          1.911    0.882    4.511         -1.000    0.000    0.000    0.000
Cl                 207             0          3.444   19.935   12.379         -1.000    0.000    0.000    0.000
Cl                 208             0          0.518   20.316   18.078         -1.000    0.000    0.000    0.000
Cl                 209             0          7.979    2.899   23.888         -1.000    0.000    0.000    0.000
Cl                 210             0         14.149    0.950    8.508         -1.000    0.000    0.000    0.000
Cl                 211             0          7.733    5.277   12.494         -1.000    0.000    0.000    0.000
Cl                 212             0          5.181   24.715   22.437         -1.000    0.000    0.000    0.000
Cl                 213             0         10.252    9.784   25.246         -1.000    0.000    0.000    0.000
Cl                 214             0          9.027   11.291    5.941         -1.000    0.000    0.000    0.000
Cl                 215             0         15.244    7.138   13.896         -1.000    0.000    0.000    0.000
Cl                 216             0          5.123   11.893   21.007         -1.000    0.000    0.000    0.000
Cl                 217             0          9.330   18.173    1.993         -1.000    0.000    0.000    0.000
Cl                 218             0         11.740   15.754    4.251         -1.000    0.000    0.000    0.000
Cl                 219             0          8.894   12.872   14.474         -1.000    0.000    0.000    0.000
Cl                 220             0         10.997   18.143   20.118         -1.000    0.000    0.000    0.000
Cl                 221             0         12.248   24.404    4.945         -1.000    0.000    0.000    0.000
Cl                 222             0          6.935   23.248    5.443         -1.000    0.000    0.000    0.000
Cl                 223             0          8.180   23.360    9.252         -1.000    0.000    0.000    0.000
Cl                 224             0          5.677   20.476   21.571         -1.000    0.000    0.000    0.000
Cl                 225             0         22.758    0.496   22.183         -1.000    0.000    0.000    0.000
Cl                 226             0         20.893    4.744    6.069         -1.000    0.000    0.000    0.000
Cl                 227             0         18.293    3.333   15.057         -1.000    0.000    0.000    0.000
Cl                 228             0         10.953    7.458   20.006         -1.000    0.000    0.000    0.000
Cl                 229             0         18.382    6.821    1.099         -1.000    0.000    0.000    0.000
Cl                 230             0         15.578    9.448   10.628         -1.000    0.000    0.000    0.000
Cl                 231             0         14.300    8.723   23.052         -1.000    0.000    0.000    0.000
Cl                 232             0         21.675    7.266   24.041         -1.000    0.000    0.000    0.000
Cl                 233             0         15.912   15.224    2.565         -1.000    0.000    0.000    0.000
Cl                 234             0         15.760   15.720    6.118         -1.000    0.000    0.000    0.000
Cl                 235             0         18.143   19.788   14.167         -1.000    0.000    0.000    0.000
Cl                 236             0         15.957   11.717   20.113         -1.000    0.000    0.000    0.000
Cl                 237             0         12.577   22.530   25.302         -1.000    0.000    0.000    0.000
Cl                 238             0         17.146   21.200    3.818         -1.000    0.000    0.000    0.000
Cl                 239             0         16.181    0.125   13.355         -1.000    0.000    0.000    0.000
Cl                 240             0          8.933   22.196   19.066         -1.000    0.000    0.000    0.000
Cl                 241             0         23.192    3.725   24.331         -1.000    0.000    0.000    0.000
Cl                 242             0         18.427    0.662   24.044         -1.000    0.000    0.000    0.000
Cl                 243             0         22.641    6.695   15.254         -1.000    0.000    0.000    0.000
Cl                 244             0          0.609    4.268   16.873         -1.000    0.000    0.000    0.000
Cl                 245             0          3.115    5.523   24.914         -1.000    0.000    0.000    0.000
Cl                 246             0         22.240   11.538    8.758         -1.000    0.000    0.000    0.000
Cl                 247             0         21.720    7.247   11.154         -1.000    0.000    0.000    0.000
Cl                 248             0         24.535   10.715   22.125         -1.000    0.000    0.000    0.000
Cl                 249             0         21.402   15.559    1.241         -1.000    0.000    0.000    0.000
Cl                 250             0         23.319   21.061    5.534         -1.000    0.000    0.000    0.000
Cl                 251             0         16.705   14.679   11.517         -1.000    0.000    0.000    0.000
Cl                 252             0         23.053   13.947   18.800         -1.000    0.000    0.000    0.000
Cl                 253             0         24.388   17.176    2.727         -1.000    0.000    0.000    0.000
Cl                 254             0         19.828   22.449    6.909         -1.000    0.000    0.000    0.000
Cl                 255             0         18.547   24.208   16.124         -1.000    0.000    0.000    0.000
Cl                 256             0         17.676   21.078   17.935         -1.000    0.000    0.000    0.000
ITEM: TIMESTEP
       1
ITEM: NUMBER OF ATOMS
     256
ITEM: BOX BOUNDS
    0.000   25.560
    0.000   25.560
    0.000   25.560
ITEM: ATOMS element id molid x y z q vx vy vz
Cl                   1             0          0.836   25.155   21.631         -1.000    0.000    0.000    0.000
Cl                   2             0         24.735    0.316    0.396         -1.000    0.000    0.000    0.000
Cl                   3             0         25.396    2.412   13.685         -1.000    0.000    0.000    0.000
Cl                   4             0          2.245    2.078   18.650         -1.000    0.000    0.000    0.000
Cl                   5             0         23.318    8.525    4.919         -1.000    0.000    0.000    0.000
Cl                   6             0         24.882    8.310    8.259         -1.000    0.000    0.000    0.000
Cl                   7             0          1.372    7.588   13.524         -1.000    0.000    0.000    0.000
Cl                   8             0          1.033    9.676   17.271         -1.000    0.000    0.000    0.000
Cl                   9             0         21.524    9.579    1.914         -1.000    0.000    0.000    0.000
Cl                  10             0         22.264   17.047    6.698         -1.000    0.000    0.000    0.000
Cl                  11             0         23.441   14.895   13.962         -1.000    0.000    0.000    0.000
Cl                  12             0          1.367   16.600   23.539         -1.000    0.000    0.000    0.000
Cl                  13             0         21.254   22.578   23.688         -1.000    0.000    0.000    0.000
Cl                  14             0          1.972   20.224    5.710         -1.000    0.000    0.000    0.000
Cl                  15             0          0.179   17.425    7.147         -1.000    0.000    0.000    0.000
Cl                  16             0          2.658   18.020   20.448         -1.000    0.000    0.000    0.000
Cl                  17             0          6.969    7.100    0.595         -1.000    0.000    0.000    0.000
Cl                  18             0          4.715    4.757    7.642         -1.000    0.000    0.000    0.000
Cl                  19             0          1.918   24.987   11.129         -1.000    0.000    0.000    0.000
Cl                  20             0          4.805   24.146   18.735         -1.000    0.000    0.000    0.000
Cl                  21             0          5.505   11.852    1.545         -1.000    0.000    0.000    0.000
Cl                  22             0          9.323    3.337    9.883         -1.000    0.000    0.000    0.000
Cl                  23             0          6.067    8.940   12.729         -1.000    0.000    0.000    0.000
Cl                  24             0          8.958    6.172   15.824         -1.000    0.000    0.000    0.000
Cl                  25             0          5.555   15.883    1.300         -1.000    0.000    0.000    0.000
Cl                  26             0          5.979   10.040    7.863         -1.000    0.000    0.000    0.000
Cl                  27             0          8.985    8.611    9.316         -1.000    0.000    0.000    0.000
Cl                  28             0          7.888   15.303   11.069         -1.000    0.000    0.000    0.000
Cl                  29             0          2.786   22.323   24.366         -1.000    0.000    0.000    0.000
Cl                  30             0          7.368   17.387    8.453         -1.000    0.000    0.000    0.000
Cl                  31             0          5.216   23.604   12.487         -1.000    0.000    0.000    0.000
Cl                  32             0          6.647   18.441   18.620         -1.000    0.000    0.000    0.000
Cl                  33             0         12.537    3.271   25.403         -1.000    0.000    0.000    0.000
Cl                  34             0          6.497    5.024    4.352         -1.000    0.000    0.000    0.000
Cl                  35             0         12.721   22.466   17.149         -1.000    0.000    0.000    0.000
Cl                  36             0         11.511   25.283   22.324         -1.000    0.000    0.000    0.000
Cl                  37             0         13.896    7.174    6.378         -1.000    0.000    0.000    0.000
Cl                  38             0         11.638    3.158    5.197         -1.000    0.000    0.000    0.000
Cl                  39             0         15.100    3.028   11.775         -1.000    0.000    0.000    0.000
Cl                  40             0         10.994    2.028   17.700         -1.000    0.000    0.000    0.000
Cl                  41             0         10.623    7.668    3.826         -1.000    0.000    0.000    0.000
Cl                  42             0         13.704   13.164    9.197         -1.000    0.000    0.000    0.000
Cl                  43             0         13.613   14.775   14.204         -1.000    0.000    0.000    0.000
Cl                  44             0         14.533   15.995   22.105         -1.000    0.000    0.000    0.000
Cl                  45             0         13.424   17.832    1.174         -1.000    0.000    0.000    0.000
Cl                  46             0         13.579   19.019    5.518         -1.000    0.000    0.000    0.000
Cl                  47             0         14.422   18.237   13.661         -1.000    0.000    0.000    0.000
Cl                  48             0         11.558   14.945   18.351         -1.000    0.000    0.000    0.000
Cl                  49             0         21.942   18.188   22.779         -1.000    0.000    0.000    0.000
Cl                  50             0         15.773   22.385    7.234         -1.000    0.000    0.000    0.000
Cl                  51             0         20.064   24.486   19.232         -1.000    0.000    0.000    0.000
Cl                  52             0         14.559   22.411   13.570         -1.000    0.000    0.000    0.000
Cl                  53             0         19.379    3.474   24.576         -1.000    0.000    0.000    0.000
Cl                  54             0         16.883    9.923    6.554         -1.000    0.000    0.000    0.000
Cl                  55             0         22.518    3.625   10.233         -1.000    0.000    0.000    0.000
Cl                  56             0         12.160    3.123   21.216         -1.000    0.000    0.000    0.000
Cl                  57             0         20.812   11.035   23.637         -1.000    0.000    0.000    0.000
Cl                  58             0         18.981   14.448    6.041         -1.000    0.000    0.000    0.000
Cl                  59             0         15.429   10.773   16.064         -1.000    0.000    0.000    0.000
Cl                  60             0         18.002   15.517   16.067         -1.000    0.000    0.000    0.000
Cl                  61             0         18.643   14.332   23.409         -1.000    0.000    0.000    0.000
Cl                  62             0         22.331   19.354    9.831         -1.000    0.000    0.000    0.000
Cl                  63             0         16.265   19.530    9.619         -1.000    0.000    0.000    0.000
Cl                  64             0         21.001   18.120   17.901         -1.000    0.000    0.000    0.000
Cl                  65             0          2.986    5.463    3.679         -1.000    0.000    0.000    0.000
Cl                  66             0         22.683    0.561    6.831         -1.000    0.000    0.000    0.000
Cl                  67             0         20.221    1.441   11.918         -1.000    0.000    0.000    0.000
Cl                  68             0          0.971    5.209   21.131         -1.000    0.000    0.000    0.000
Cl                  69             0          3.573   16.804    4.934         -1.000    0.000    0.000    0.000
Cl                  70             0          1.843   15.146   12.752         -1.000    0.000    0.000    0.000
Cl                  71             0          1.099   15.172   17.671         -1.000    0.000    0.000    0.000
Cl                  72             0          0.961   13.115   21.495         -1.000    0.000    0.000    0.000
Cl                  73             0          0.170   13.395    0.933         -1.000    0.000    0.000    0.000
Cl                  74             0          1.119   10.790   11.801         -1.000    0.000    0.000    0.000
Cl                  75             0         19.587   11.355   12.406         -1.000    0.000    0.000    0.000
Cl                  76             0         25.012   21.691   23.373         -1.000    0.000    0.000    0.000
Cl                  77             0         23.456   20.471    0.914         -1.000    0.000    0.000    0.000
Cl                  78             0          0.369   22.442    9.142         -1.000    0.000    0.000    0.000
Cl                  79             0         24.596   18.584   15.447         -1.000    0.000    0.000    0.000
Cl                  80             0         22.447   21.299   19.629         -1.000    0.000    0.000    0.000
Cl                  81             0          1.388   10.180    1.440         -1.000    0.000    0.000    0.000
Cl                  82             0          2.558    7.783    9.254         -1.000    0.000    0.000    0.000
Cl                  83             0          7.415    2.078   15.828         -1.000    0.000    0.000    0.000
Cl                  84             0          4.298    9.077   24.113         -1.000    0.000    0.000    0.000
Cl                  85             0          5.060    8.667    4.397         -1.000    0.000    0.000    0.000
Cl                  86             0         12.498   10.396    7.587         -1.000    0.000    0.000    0.000
Cl                  87             0         11.518   11.309   12.286         -1.000    0.000    0.000    0.000
Cl                  88             0          8.207   11.368   23.011         -1.000    0.000    0.000    0.000
Cl                  89             0          6.293   13.558    6.510         -1.000    0.000    0.000    0.000
Cl                  90             0         10.498   17.731   12.535         -1.000    0.000    0.000    0.000
Cl                  91             0          6.915   18.809   12.658         -1.000    0.000    0.000    0.000
Cl                  92             0         10.869   19.408   22.815         -1.000    0.000    0.000    0.000
Cl                  93             0          4.182   23.302    2.586         -1.000    0.000    0.000    0.000
Cl                  94             0          5.328    0.988    8.244         -1.000    0.000    0.000    0.000
Cl                  95             0          3.373   21.268   15.861         -1.000    0.000    0.000    0.000
Cl                  96             0          6.408   25.412    1.420         -1.000    0.000    0.000    0.000
Cl                  97             0         19.482    1.321    3.800         -1.000    0.000    0.000    0.000
Cl                  98             0         16.455    4.397    5.403         -1.000    0.000    0.000    0.000
Cl                  99             0         12.281    4.610   15.306         -1.000    0.000    0.000    0.000
Cl                 100             0         15.636    4.501   22.336         -1.000    0.000    0.000    0.000
Cl                 101             0         19.354   12.898    2.198         -1.000    0.000    0.000    0.000
Cl                 102             0         18.995    6.525   13.604         -1.000    0.000    0.000    0.000
Cl                 103             0         13.634    5.966   17.926         -1.000    0.000    0.000    0.000
Cl                 104             0          9.639   11.990   19.831         -1.000    0.000    0.000    0.000
Cl                 105             0         13.576   12.579    4.412         -1.000    0.000    0.000    0.000
Cl                 106             0         13.210   17.001    9.135         -1.000    0.000    0.000    0.000
Cl                 107             0         11.800   10.744   16.831         -1.000    0.000    0.000    0.000
Cl                 108             0         12.498   13.704    0.741         -1.000    0.000    0.000    0.000
Cl                 109             0         10.852    0.071    1.558         -1.000    0.000    0.000    0.000
Cl                 110             0         11.122   25.177    9.297         -1.000    0.000    0.000    0.000
Cl                 111             0          7.427   23.385   15.665         -1.000    0.000    0.000    0.000
Cl                 112             0         14.448   18.317   17.955         -1.000    0.000    0.000    0.000
Cl                 113             0         18.491   20.885   25.476         -1.000    0.000    0.000    0.000
Cl                 114             0         18.570    1.703    8.225         -1.000    0.000    0.000    0.000
Cl                 115             0         23.767    3.311   19.841         -1.000    0.000    0.000    0.000
Cl                 116             0         15.862   25.515   20.296         -1.000    0.000    0.000    0.000
Cl                 117             0         21.588    4.556    2.466         -1.000    0.000    0.000    0.000
Cl                 118             0         20.610   11.142    5.156         -1.000    0.000    0.000    0.000
Cl                 119             0         22.412    7.038   19.434         -1.000    0.000    0.000    0.000
Cl                 120             0         12.690   12.526   22.542         -1.000    0.000    0.000    0.000
Cl                 121             0         18.771   17.892    3.769         -1.000    0.000    0.000    0.000
Cl                 122             0         19.858   19.146    7.405         -1.000    0.000    0.000    0.000
Cl                 123             0         19.325    9.847   16.538         -1.000    0.000    0.000    0.000
Cl                 124             0         20.854   11.385   20.056         -1.000    0.000    0.000    0.000
Cl                 125             0         20.252   23.396    3.133         -1.000    0.000    0.000    0.000
Cl                 126             0         18.249   23.759   10.371         -1.000    0.000    0.000    0.000
Cl                 127             0         21.242   19.720   13.042         -1.000    0.000    0.000    0.000
Cl                 128             0         17.476   18.495   20.509         -1.000    0.000    0.000    0.000
Cl                 129             0          0.208    3.252    1.330         -1.000    0.000    0.000    0.000
Cl                 130             0          4.675    3.944   11.941         -1.000    0.000    0.000    0.000
Cl                 131             0          2.884   25.499   15.610         -1.000    0.000    0.000    0.000
Cl                 132             0          5.242    2.971   21.252         -1.000    0.000    0.000    0.000
Cl                 133             0          2.153    9.798    5.969         -1.000    0.000    0.000    0.000
Cl                 134             0          5.597   12.057   10.739         -1.000    0.000    0.000    0.000
Cl                 135             0         21.217    2.842   16.396         -1.000    0.000    0.000    0.000
Cl                 136             0          2.041    9.789   20.802         -1.000    0.000    0.000    0.000
Cl                 137             0          3.000   13.387    3.651         -1.000    0.000    0.000    0.000
Cl                 138             0         24.140   14.759    9.624         -1.000    0.000    0.000    0.000
Cl                 139             0          5.916   15.176   14.375         -1.000    0.000    0.000    0.000
Cl                 140             0          7.316   15.990   21.129         -1.000    0.000    0.000    0.000
Cl                 141             0          6.369   18.866    4.468         -1.000    0.000    0.000    0.000
Cl                 142             0          3.669   23.705    7.090         -1.000    0.000    0.000    0.000
Cl                 143             0         25.367   22.124   14.522         -1.000    0.000    0.000    0.000
Cl                 144             0          5.646   19.768    0.526         -1.000    0.000    0.000    0.000
Cl                 145             0          8.356    1.686    6.560         -1.000    0.000    0.000    0.000
Cl                 146             0          6.617    1.270   11.871         -1.000    0.000    0.000    0.000
Cl                 147             0          8.461    0.062   20.668         -1.000    0.000    0.000    0.000
Cl                 148             0         15.700   24.798    3.597         -1.000    0.000    0.000    0.000
Cl                 149             0          9.389    6.513    6.536         -1.000    0.000    0.000    0.000
Cl                 150             0         12.541    6.117    9.953         -1.000    0.000    0.000    0.000
Cl                 151             0          6.625    8.966   17.003         -1.000    0.000    0.000    0.000
Cl                 152             0          7.923    7.291   21.386         -1.000    0.000    0.000    0.000
Cl                 153             0          8.085   13.407    2.547         -1.000    0.000    0.000    0.000
Cl                 154             0         10.383   14.260    7.967         -1.000    0.000    0.000    0.000
Cl                 155             0         12.380    7.699   13.370         -1.000    0.000    0.000    0.000
Cl                 156             0          9.032   15.065   24.090         -1.000    0.000    0.000    0.000
Cl                 157             0         12.033   21.655    3.288         -1.000    0.000    0.000    0.000
Cl                 158             0         10.971   24.536   12.918         -1.000    0.000    0.000    0.000
Cl                 159             0          9.153   17.407   16.037         -1.000    0.000    0.000    0.000
Cl                 160             0          8.088   22.017   22.898         -1.000    0.000    0.000    0.000
Cl                 161             0          8.689    3.532    2.304         -1.000    0.000    0.000    0.000
Cl                 162             0         11.644    2.830   12.318         -1.000    0.000    0.000    0.000
Cl                 163             0         14.191    0.572   17.108         -1.000    0.000    0.000    0.000
Cl                 164             0         13.336   21.330   20.135         -1.000    0.000    0.000    0.000
Cl                 165             0         16.274    3.453    1.592         -1.000    0.000    0.000    0.000
Cl                 166             0         16.954    5.520    9.004         -1.000    0.000    0.000    0.000
Cl                 167             0          8.469    3.936   19.093         -1.000    0.000    0.000    0.000
Cl                 168             0         11.078    6.241   24.075         -1.000    0.000    0.000    0.000
Cl                 169             0         18.695    7.515    4.385         -1.000    0.000    0.000    0.000
Cl                 170             0         19.126    8.958    9.356         -1.000    0.000    0.000    0.000
Cl                 171             0         19.034    7.287   20.253         -1.000    0.000    0.000    0.000
Cl                 172             0         13.703    8.760    1.207         -1.000    0.000    0.000    0.000
Cl                 173             0         16.907   17.475   25.336         -1.000    0.000    0.000    0.000
Cl                 174             0         12.004   20.809   10.326         -1.000    0.000    0.000    0.000
Cl                 175             0         10.031   21.123   15.020         -1.000    0.000    0.000    0.000
Cl                 176             0         19.623   14.954   19.414         -1.000    0.000    0.000    0.000
Cl                 177             0         15.082    0.128    0.004         -1.000    0.000    0.000    0.000
Cl                 178             0         23.156   23.735   10.221         -1.000    0.000    0.000    0.000
Cl                 179             0         21.976   22.315   15.765         -1.000    0.000    0.000    0.000
Cl                 180             0         24.805   24.436   17.803         -1.000    0.000    0.000    0.000
Cl                 181             0         24.102    2.445    3.852         -1.000    0.000    0.000    0.000
Cl                 182             0         25.006    5.131    6.506         -1.000    0.000    0.000    0.000
Cl                 183             0         18.472    2.440   19.531         -1.000    0.000    0.000    0.000
Cl                 184             0         25.066    7.312   23.691         -1.000    0.000    0.000    0.000
Cl                 185             0         23.773   12.783    4.562         -1.000    0.000    0.000    0.000
Cl                 186             0         20.277   15.905   10.335         -1.000    0.000    0.000    0.000
Cl                 187             0         22.988   10.541   14.204         -1.000    0.000    0.000    0.000
Cl                 188             0         22.656   14.236   23.224         -1.000    0.000    0.000    0.000
Cl                 189             0         25.069   23.751    4.456         -1.000    0.000    0.000    0.000
Cl                 190             0          4.557   20.950    9.315         -1.000    0.000    0.000    0.000
Cl                 191             0          0.036   18.480   11.063         -1.000    0.000    0.000    0.000
Cl                 192             0         24.271   17.721   19.945         -1.000    0.000    0.000    0.000
Cl                 193             0          2.821    1.813   24.062         -1.000    0.000    0.000    0.000
Cl                 194             0          0.620    2.041    8.496         -1.000    0.000    0.000    0.000
Cl                 195             0          0.410    5.317   11.099         -1.000    0.000    0.000    0.000
Cl                 196             0          5.008    6.293   19.198         -1.000    0.000    0.000    0.000
Cl                 197             0          3.599   13.580   24.329         -1.000    0.000    0.000    0.000
Cl                 198             0          1.915   13.209    8.667         -1.000    0.000    0.000    0.000
Cl                 199             0          4.523    4.825   16.295         -1.000    0.000    0.000    0.000
Cl                 200             0          3.554   11.722   15.552         -1.000    0.000    0.000    0.000
Cl                 201             0          1.805   18.326    1.695         -1.000    0.000    0.000    0.000
Cl                 202             0          3.662   16.572    8.818         -1.000    0.000    0.000    0.000
Cl                 203             0          4.029   17.217   16.299         -1.000    0.000    0.000    0.000
Cl                 204             0          6.990   13.558   17.438         -1.000    0.000    0.000    0.000
Cl                 205             0          4.507    2.936    0.878         -1.000    0.000    0.000    0.000
Cl                 206             0          1.912    0.880    4.512         -1.000    0.000    0.000    0.000
Cl                 207             0          3.449   19.934   12.382         -1.000    0.000    0.000    0.000
Cl                 208             0          0.521   20.312   18.078         -1.000    0.000    0.000    0.000
Cl                 209             0          7.976    2.897   23.892         -1.000    0.000    0.000    0.000
Cl                 210             0         14.150    0.948    8.512         -1.000    0.000    0.000    0.000
Cl                 211             0          7.729    5.275   12.493         -1.000    0.000    0.000    0.000
Cl                 212             0          5.182   24.713   22.435         -1.000    0.000    0.000    0.000
Cl                 213             0         10.256    9.788   25.248         -1.000    0.000    0.000    0.000
Cl                 214             0          9.026   11.289    5.946         -1.000    0.000    0.000    0.000
Cl                 215             0         15.244    7.141   13.896         -1.000    0.000    0.000    0.000
Cl                 216             0          5.120   11.891   21.011         -1.000    0.000    0.000    0.000
Cl                 217             0          9.327   18.173    1.992         -1.000    0.000    0.000    0.000
Cl                 218             0         11.739   15.755    4.255         -1.000    0.000    0.000    0.000
Cl                 219             0          8.893   12.872   14.470         -1.000    0.000    0.000    0.000
Cl                 220             0         10.999   18.144   20.115         -1.000    0.000    0.000    0.000
Cl                 221             0         12.246   24.402    4.945         -1.000    0.000    0.000    0.000
Cl                 222             0          6.933   23.246    5.444         -1.000    0.000    0.000    0.000
Cl                 223             0          8.181   23.361    9.254         -1.000    0.000    0.000    0.000
Cl                 224             0          5.678   20.475   21.571         -1.000    0.000    0.000    0.000
Cl                 225             0         22.760    0.494   22.182         -1.000    0.000    0.000    0.000
Cl                 226             0         20.895    4.743    6.068         -1.000    0.000    0.000    0.000
Cl                 227             0         18.293    3.330   15.060         -1.000    0.000    0.000    0.000
Cl                 228             0         10.956    7.454   20.009         -1.000    0.000    0.000    0.000
Cl                 229             0         18.383    6.820    1.098         -1.000    0.000    0.000    0.000
Cl                 230             0         15.580    9.448   10.625         -1.000    0.000    0.000    0.000
Cl                 231             0         14.298    8.720   23.053         -1.000    0.000    0.000    0.000
Cl                 232             0         21.672    7.268   24.042         -1.000    0.000    0.000    0.000
Cl                 233             0         15.914   15.229    2.563         -1.000    0.000    0.000    0.000
Cl                 234             0         15.763   15.720    6.120         -1.000    0.000    0.000    0.000
Cl                 235             0         18.140   19.787   14.166         -1.000    0.000    0.000    0.000
Cl                 236             0         15.958   11.715   20.114         -1.000    0.000    0.000    0.000
Cl                 237             0         12.578   22.528   25.301         -1.000    0.000    0.000    0.000
Cl                 238             0         17.146   21.201    3.820         -1.000    0.000    0.000    0.000
Cl                 239             0         16.182    0.122   13.357         -1.000    0.000    0.000    0.000
Cl                 240             0          8.937   22.193   19.068         -1.000    0.000    0.000    0.000
Cl                 241             0         23.193    3.723   24.333         -1.000    0.000    0.000    0.000
Cl                 242             0         18.424    0.665   24.044         -1.000    0.000    0.000    0.000
Cl                 243             0         22.644    6.694   15.259         -1.000    0.000    0.000    0.000
Cl                 244             0          0.611    4.265   16.876         -1.000    0.000    0.000    0.000
Cl                 245             0          3.118    5.522   24.912         -1.000    0.000    0.000    0.000
Cl                 246             0         22.241   11.538    8.757         -1.000    0.000    0.000    0.000
Cl                 247             0         21.721    7.247   11.154         -1.000    0.000    0.000    0.000
Cl                 248             0         24.536   10.718   22.123         -1.000    0.000    0.000    0.000
Cl                 249             0         21.399   15.558    1.241         -1.000    0.000    0.000    0.000
Cl                 250             0         23.315   21.061    5.540         -1.000    0.000    0.000    0.000
Cl                 251             0         16.708   14.683   11.516         -1.000    0.000    0.000    0.000
Cl                 252             0         23.050   13.945   18.798         -1.000    0.000    0.000    0.000
Cl                 253             0         24.390   17.178    2.725         -1.000    0.000    0.000    0.000
Cl                 254             0         19.828   22.445    6.912         -1.000    0.000    0.000    0.000
Cl                 255             0         18.553   24.211   16.126         -1.000    0.000    0.000    0.000
Cl                 256             0         17.676   21.080   17.933         -1.000    0.000    0.000    0.000
