# Total force on electrodes and pressure in atomic unit
# -----------------------------------------
# Force:   1 au = 8.2387225e-8 N = 51.421 eV/angstrom
# Pressure:   1 bar = 3.3988273773641905e-09 ua
#      fx_total                fy_total                fz_total              fx_coulomb_sr           fy_coulomb_sr           fz_coulomb_sr           fx_coulomb_k0           fy_coulomb_k0           fz_coulomb_k0           fx_coulomb_lr           fy_coulomb_lr           fz_coulomb_lr         fx_lennard_jones        fy_lennard_jones        fz_lennard_jones          fx_fumi_tosi            fy_fumi_tosi            fz_fumi_tosi               pressure               velocity_z                com_z         
# step        0
-5.516206607905759E-003 -3.445712151737103E-003 -1.183893114164427E+000 +1.101505809143482E-003 +2.602174467920786E-003 +1.883417785155546E-002 +0.000000000000000E+000 +0.000000000000000E+000 +3.870153831350265E-004 +1.046760965012747E-005 -3.773131957912109E-004 +1.155726007412997E-003 +0.000000000000000E+000 +0.000000000000000E+000 +0.000000000000000E+000 -6.628180026699368E-003 -5.670573423866678E-003 -1.204270033406531E+000 -5.615767330184869E-004 +0.000000000000000E+000 +3.826199999999988E+000
-3.898877205491479E-002 -2.343518429360761E-001 +1.452862771834638E+000 -7.649330872626268E-004 +2.442966642386417E-003 -2.976382691502958E-002 +0.000000000000000E+000 +0.000000000000000E+000 -4.275172757379881E-004 +2.810098518099849E-004 +3.107829078079744E-004 -1.827168783226863E-003 +0.000000000000000E+000 +0.000000000000000E+000 +0.000000000000000E+000 -3.850484881946215E-002 -2.371055924862704E-001 +1.484881284808632E+000 +6.891618163578256E-004 +0.000000000000000E+000 +1.056516926212050E+002
# step        1
-2.599023879439503E-003 +1.809931899731666E-003 -1.111881471160591E+000 +1.190189292060320E-003 +2.460957374767678E-003 +1.861975757547372E-002 +0.000000000000000E+000 +0.000000000000000E+000 +3.980315021870515E-004 +1.206646648791496E-005 -3.572556335686463E-004 +1.141524780672520E-003 +0.000000000000000E+000 +0.000000000000000E+000 +0.000000000000000E+000 -3.801279637987738E-003 -2.937698414673656E-004 -1.132040785018925E+000 -5.274181905508001E-004 -4.466731446102353E-006 +3.826104774306703E+000
-3.764313605677518E-002 -2.128949600243317E-001 +1.302985088397703E+000 -7.084510719089286E-004 +2.458526426152024E-003 -2.956889907016759E-002 +0.000000000000000E+000 +0.000000000000000E+000 -3.904576225870104E-004 +2.694356732806892E-004 +3.140612240852204E-004 -1.800091298534806E-003 +0.000000000000000E+000 +0.000000000000000E+000 +0.000000000000000E+000 -3.720412065814694E-002 -2.156675476745689E-001 +1.334744536388992E+000 +6.180677126673104E-004 +5.361869453220347E-006 +1.056518094814184E+002
