# Energy in atomic unit (1 Eh = 2625.499640 kJ/mol)
# -------------------------------------------------
# step        Hamiltonian             Total energy           Kinetic energy         Potential energy       Thermostat energy      External field energy 
       0 -1.382049957653530E+002 -1.382049957653530E+002  8.914974225043002E+000 -1.471199699903960E+002  0.000000000000000E+000  0.000000000000000E+000
       1 -1.382053556348843E+002 -1.382055122414027E+002  9.100605835141154E+000 -1.473061180765438E+002  1.566051770834770E-004  0.000000000000000E+000
