# Electrode atom charges in atomic unit
# -------------------------------------
# Charge:   1 au = 1.602176565e-19 C = 1 e
# step        0
-1.588600022102014E-003
-1.089951535207030E-003
-9.409623858849934E-004
-4.384477655181379E-004
-6.967003702889576E-004
-6.697229699930059E-004
-1.021155345133643E-003
-1.132301378439227E-003
-1.519312665676060E-003
-1.672591275178324E-003
-2.104584131898446E-003
-1.848569465284555E-003
-1.362933848762565E-003
-7.930975459951739E-004
-4.623666050845201E-004
-3.816995023849485E-004
-2.825596253027361E-004
-1.090250783099260E-003
-1.109287594141337E-003
-1.349624937591790E-003
-1.257749011958087E-003
-1.256444668320667E-003
-1.722526391225502E-003
-1.364701273477624E-003
-1.076043209549675E-003
-1.457366704828739E-003
-9.108312885841415E-004
-1.593281007151302E-003
-1.277422174393665E-003
-1.828402270750149E-003
-1.592146424291518E-003
-1.262175452466078E-003
-1.114978912048290E-003
-6.538517428371781E-004
-9.542124063768579E-004
-1.062900364253359E-003
-1.816479929499373E-003
-2.354190162334644E-003
-1.974880035988438E-003
-2.135852756956511E-003
-1.984087910913041E-003
-2.107998812110440E-003
-1.635511327244790E-003
-1.377228056783689E-003
-8.248763556006437E-004
-8.956956952048142E-004
-8.707403183100216E-004
-1.711958138553154E-003
-2.397803897068019E-003
-2.217074458622747E-003
-2.266219472975453E-003
-1.853927783644763E-003
-2.174340373196104E-003
-2.008408243559564E-003
-2.028288867174077E-003
-1.822360386966357E-003
-1.425767959778977E-003
-1.875054179315339E-003
-1.468010268103229E-003
-2.185056570338856E-003
-2.100633686138140E-003
-1.364718180997654E-003
-1.517685354979282E-003
-1.044454640901006E-003
-1.428020385704833E-003
-1.110795151397938E-003
-1.648358384348842E-003
-1.422694254228398E-003
-1.906079159627632E-003
-2.144692180430429E-003
-2.313151496428556E-003
-2.155988789245973E-003
-1.530060545113977E-003
-1.810522483165709E-004
-5.149158979760055E-004
-6.255712756931877E-004
-9.145936063845057E-004
-2.012991403122880E-003
-2.685356433324780E-003
-2.063670980183274E-003
-1.992144558473462E-003
-2.820407870899639E-003
-2.695375584867132E-003
-1.692183417206646E-003
-1.674553455494868E-003
-1.096989485190890E-003
-3.554265787121772E-004
+1.068815132560716E-004
-5.843485046410444E-004
-1.387237771889609E-003
-2.281692254937116E-003
-1.904759418531982E-003
-1.762897481907848E-003
-2.065445828251565E-003
-3.452161352554908E-003
-3.218258659641225E-003
-2.721443121355573E-003
-1.148445383418034E-003
-2.258583149838085E-003
-1.265372204771155E-003
-3.019711661794051E-003
-2.640614650561784E-003
-2.047031461899954E-003
-2.624141545733184E-003
-2.528385779426288E-003
-2.876669252764239E-003
-2.222336612620665E-003
-2.632211827202227E-003
-4.206442679142478E-003
-3.286110699649748E-003
-2.542854204101523E-003
-2.619774339785279E-003
-2.121906038547779E-003
-2.281159097852865E-003
-1.086751730427180E-003
-1.214521042266928E-003
-1.326137621255790E-003
-2.245380522705301E-003
-2.559031818203728E-003
-3.913748796094344E-003
-3.543168609821432E-003
-3.054772801490913E-003
-6.749043721549879E-004
-1.335462259848742E-003
-5.731268151643684E-004
-1.758071321801172E-003
-5.244160983004496E-004
-5.097795750448287E-004
-1.053906220486658E-003
-1.197936281683842E-003
-1.518663283924302E-003
-2.578849143186572E-003
-9.340633540482968E-004
-7.464428555511646E-004
+1.262067185248578E-004
+2.374886408837212E-006
+9.394584400917575E-005
-8.432158123027225E-004
-2.018344154470420E-003
-3.762663092800252E-004
-1.325468766135829E-003
-2.021983106750218E-003
-2.751256972348831E-003
-2.628070840648212E-003
+2.730777414610542E-003
-8.119563020363696E-004
-3.309503369015754E-004
-1.980879188705988E-003
-2.263045262722378E-003
-5.124852800587295E-003
-5.552315411864971E-003
-3.087787614382774E-003
-5.333168017471767E-003
-2.606602476899582E-003
-4.678332598440891E-003
-2.315514560469462E-003
-4.363976708980020E-003
+7.075554646914217E-004
-3.676505841257569E-004
+3.181656424584355E-003
+3.332274735888104E-003
-3.038169049047455E-003
-5.538718715145728E-003
-3.063642476093050E-003
+2.202210634240701E-004
-4.808181826250233E-003
-8.031868800471399E-003
-5.525750388610623E-003
-2.859900859148325E-003
-3.528311173265027E-003
+9.943410097299155E-005
-5.042819732783969E-003
-5.164019634850872E-003
-6.214496297776761E-003
-3.929304044316183E-003
-2.144926660939870E-003
-7.598504007605973E-003
-4.160257145742891E-003
-4.676891901557997E-003
-5.166396960324961E-003
-6.804217358122823E-003
-5.685007462173679E-003
-5.109409641426715E-003
-1.490651860213592E-003
-4.475826518440508E-003
-2.127149720338549E-003
-9.396178291004638E-004
+1.914241858907623E-003
-3.775152284166302E-003
-2.079984148218255E-003
-7.209740239631178E-003
-9.546778400724253E-003
-9.726294104323638E-003
-2.650196304883439E-003
-1.195262607979415E-003
+3.011327136486101E-003
-1.843024869257302E-003
-6.649163889172752E-004
+1.066456794653949E-005
+2.840305702723612E-003
-4.226547803798976E-004
-2.902864082969877E-003
+1.907487195863042E-003
-2.979494204516456E-003
-3.510415344119219E-003
+4.234360358877799E-003
+1.218714491480965E-003
+2.364130011587723E-003
+1.750889346485116E-003
-9.429466772677891E-004
-2.256080958972040E-004
-1.338881502668108E-003
+8.827352128427967E-004
-4.757583164850884E-003
-3.924097179804115E-003
-3.229961523118960E-003
-3.801785350506208E-003
-5.826620249335218E-004
+4.180528386271820E-004
+5.648549398885303E-003
+4.876667545748993E-003
+1.115905122225281E-002
+9.736645000295183E-003
+8.022768193457801E-003
+7.020807991214705E-003
+3.612764798899651E-003
+2.369833355958864E-003
-1.838084328229987E-003
+4.408676984748243E-003
+2.686793928139423E-003
+7.443554708395918E-003
+6.683692814225064E-003
+6.978754280505634E-003
+2.709635758266640E-003
+2.778569607244170E-003
+1.769038915010862E-003
-4.617391207684491E-004
+3.967591849307672E-003
+2.212716963946572E-003
+7.579480492772728E-003
+2.841636209436607E-003
+2.737386742849293E-003
+1.726002096155101E-003
+1.684336731725199E-003
+1.204398398451380E-003
+1.180931936726769E-003
+7.284775118811445E-004
+4.545191065382276E-003
+7.766025689733738E-003
+1.229661884122303E-002
+9.224464295938933E-003
+7.056272383149363E-003
+3.759323065731037E-003
+4.178387439778940E-004
+1.258810663692060E-003
+1.908012413019523E-003
+5.821320764994272E-003
-2.031578610670815E-003
+1.565353623744358E-003
+9.315049297349683E-004
+8.023322071110093E-003
+6.732078558219045E-003
+1.173645740307659E-002
+6.265019640626646E-003
+2.456931965417848E-003
-1.006631026801019E-003
-2.874981806004573E-003
-4.987369956925900E-003
-2.421418528509611E-003
-1.574652276475030E-003
-8.668264281304159E-003
-6.953653001876095E-003
+6.811113801437614E-003
-4.393844214720728E-003
+4.168876968436826E-003
+2.268115689587032E-003
-6.251609846940209E-005
+3.656124048793835E-003
-5.567258935045681E-004
+9.848587872747019E-005
-1.524293988899078E-003
+6.515979150510257E-003
-3.277400854386672E-004
+3.678022243958650E-003
-6.356546991306178E-003
+4.015356964514793E-004
-2.945927942717956E-003
-1.990016267201439E-003
+7.465045659857455E-004
+7.516667963518825E-004
+2.845133925418977E-003
+1.865755067394906E-003
+3.880871965939374E-003
+4.609986406278678E-003
+4.742961019407241E-003
+3.717072357597967E-003
+2.839367596965829E-003
+1.969632680473857E-003
+1.441737162469127E-003
+5.603660515271912E-005
+2.815606211991385E-003
+2.184835162172624E-003
+2.793376473814956E-003
+4.545753697864931E-003
+3.417942496843989E-003
+3.267262190183480E-003
+1.698795314345004E-003
+2.154666655236481E-003
+2.797526469980711E-003
+1.973520909861100E-003
+2.888714500720807E-003
+2.202444966896386E-003
+2.240465629571280E-003
+2.293647034055725E-003
+1.805913528383216E-003
+2.098144112353715E-003
+1.726817121452898E-003
+1.378763080370669E-003
+1.495690209537036E-003
+2.306875769311371E-003
+4.025415653399650E-003
+4.436298073559109E-003
+5.297005425212156E-003
+3.349517180213135E-003
+1.986700482858941E-003
+1.428494906922484E-003
+1.542793190394625E-004
+1.708593395822048E-003
+8.875724133118110E-004
+1.230542683854581E-003
-4.396730086686132E-004
+2.407937322984455E-003
+3.306464494574773E-003
+5.244966410913450E-003
+3.720129357068712E-003
+4.251436268997538E-003
+5.594992402353388E-004
+1.733406198094928E-004
-8.031895657143709E-004
-7.444202746302875E-004
-4.527524643107377E-004
-1.412512022406740E-003
-1.522466796647089E-003
+6.036856220958987E-005
-4.497974937299243E-004
+2.248688673624668E-003
+5.343453765162472E-004
+2.144388697242232E-003
+3.473098942612422E-004
+8.021627279908988E-004
+8.631567426951395E-004
+1.525983703921512E-004
+1.755591494990815E-003
+9.963978584103285E-004
+2.765040839928882E-003
-2.352587972816399E-005
+1.017806594795081E-003
-1.320722149919103E-003
+3.208834015053861E-004
+1.486205117924278E-004
+1.160485882843001E-003
+1.830357055886999E-003
+2.004590592257049E-003
+2.612766405932130E-003
+2.368034458761916E-003
+2.551309051718357E-003
+2.340992981247445E-003
+2.020089370757513E-003
+1.584271870236857E-003
+1.265991151955626E-003
+8.342497177864493E-004
+1.007512848963808E-003
+1.615544814240677E-003
+2.057824382765950E-003
+2.539428514803624E-003
+2.453044803850156E-003
+2.627499770979033E-003
+1.763325111326922E-003
+1.925569537051306E-003
+1.521692943593199E-003
+1.546231857288484E-003
+1.587254136099463E-003
+1.187274874736246E-003
+1.593421810839459E-003
+1.708960203426728E-003
+1.334509289494917E-003
+1.860132965198814E-003
+1.303406951323703E-003
+1.581516606533400E-003
+1.114174690324675E-003
+1.277672019492158E-003
+1.666299237705356E-003
+1.862118409867562E-003
+2.354427510397924E-003
+1.933129485900414E-003
+1.811485042804230E-003
+1.135156782457129E-003
+5.498489061677969E-004
+8.795747185284500E-004
+7.449211034432330E-004
+1.055355961804279E-003
+8.400064024184763E-004
+1.251981358434523E-003
+1.557673943925439E-003
+2.213656503084117E-003
+2.133254219627308E-003
+2.191934637053632E-003
+1.361664936247607E-003
+6.825757327483898E-004
+7.398696918852146E-004
+4.832801030784992E-004
+8.846695308042336E-004
+7.367206661276232E-004
+9.509321188393064E-004
+8.088279998776282E-004
+9.955102149642142E-004
+1.579225005578445E-003
+9.162694631061477E-004
+1.387707799143631E-003
+7.857557828192393E-004
+9.164784411685764E-004
+1.506781177988245E-003
+1.314022370794252E-003
+1.816287596307511E-003
+1.472767188668457E-003
+2.056830340702418E-003
+1.375947619209503E-003
+1.638234664989462E-003
+8.507705021072417E-004
+7.825469395063445E-004
+5.295462036578374E-004
+7.185264836775622E-004

# step        1
-1.579756447346728E-003
-1.106306337850203E-003
-9.789430517277047E-004
-4.666152425655582E-004
-7.326417339453448E-004
-6.806839121003479E-004
-1.049787157616826E-003
-1.124243047028445E-003
-1.507168086279270E-003
-1.637514306160295E-003
-2.057016872208624E-003
-1.815861841552191E-003
-1.361473507999181E-003
-8.060897826082150E-004
-4.827726144400370E-004
-3.904591121442975E-004
-2.896017841741129E-004
-1.087926614953733E-003
-1.100673017148231E-003
-1.354394696024376E-003
-1.246362017700844E-003
-1.276220453488286E-003
-1.704719399813761E-003
-1.372210781175592E-003
-1.088812544775366E-003
-1.457456093044328E-003
-9.217833469701919E-004
-1.613838912290632E-003
-1.288908197794213E-003
-1.855782104592634E-003
-1.605070095446700E-003
-1.295373837150291E-003
-1.152766729393570E-003
-7.075333526248982E-004
-9.946391970564947E-004
-1.083614942915333E-003
-1.799215143714269E-003
-2.348778712140168E-003
-1.986552160867744E-003
-2.182936218547377E-003
-2.023419868601960E-003
-2.153279574257098E-003
-1.671506549055904E-003
-1.436738115085744E-003
-8.778030327092417E-004
-9.453812166576545E-004
-8.978549996634825E-004
-1.692343153475998E-003
-2.376279129222378E-003
-2.242288804764694E-003
-2.314554309701624E-003
-1.929650344745076E-003
-2.238982625624518E-003
-2.079970682196767E-003
-2.090355468380986E-003
-1.902442963046001E-003
-1.503160580584713E-003
-1.918707825836421E-003
-1.481603302899837E-003
-2.165527525785437E-003
-2.093421570034838E-003
-1.395016181640636E-003
-1.580134889251882E-003
-1.099655684303362E-003
-1.496952464214956E-003
-1.165068064313024E-003
-1.725053357451453E-003
-1.469496648395165E-003
-1.954428526872734E-003
-2.128667794676990E-003
-2.300283929979069E-003
-2.122182179096606E-003
-1.528829831586584E-003
-2.140530971494452E-004
-5.527548035843343E-004
-6.738224634901789E-004
-9.545395941145911E-004
-2.044234439947689E-003
-2.721459472774106E-003
-2.124440974874551E-003
-2.019366356993689E-003
-2.793423513545337E-003
-2.686538585737213E-003
-1.627885490322157E-003
-1.702227183520806E-003
-1.116258686075771E-003
-3.451507379111130E-004
+8.810338878672518E-005
-5.709951871492311E-004
-1.394021942609991E-003
-2.316977631660158E-003
-1.956190207888880E-003
-1.888432840971271E-003
-2.133635009157771E-003
-3.542915239178614E-003
-3.227337607983493E-003
-2.718995558322889E-003
-1.145070567817637E-003
-2.229998150521132E-003
-1.245597774767704E-003
-3.063750251034903E-003
-2.666924670106375E-003
-2.108780161864774E-003
-2.710907197920971E-003
-2.616549065579178E-003
-3.048523749620045E-003
-2.358276270406710E-003
-2.712124507057361E-003
-4.111084620222645E-003
-3.218204439375306E-003
-2.544888078007395E-003
-2.654353847205684E-003
-2.200502961274313E-003
-2.364761379829815E-003
-1.145913332500142E-003
-1.267913607300391E-003
-1.382945207007743E-003
-2.300920120338123E-003
-2.545460510098461E-003
-3.906628383054018E-003
-3.431453722718413E-003
-3.032305419180180E-003
-7.306658540394250E-004
-1.407250401152502E-003
-6.316561674950408E-004
-1.805736506067789E-003
-5.845870784704472E-004
-5.714722577637697E-004
-1.111935803648730E-003
-1.239321949273928E-003
-1.498542622868393E-003
-2.497814844957744E-003
-8.936517671620485E-004
-7.425879951435129E-004
+8.057905552373822E-005
-4.489284469263714E-005
+7.441918516071552E-005
-8.933871318154575E-004
-2.108670638254076E-003
-4.771273374782955E-004
-1.353907273282902E-003
-2.008042274045482E-003
-2.673649106357960E-003
-2.534545611869663E-003
+2.731099819041740E-003
-8.947485024505397E-004
-3.187192123379339E-004
-2.108201855118407E-003
-2.371287800951625E-003
-5.137245073445461E-003
-5.708491961322238E-003
-3.206259146321516E-003
-5.296062009919795E-003
-2.701979490427900E-003
-4.545954340367062E-003
-2.252877858128256E-003
-4.374708457222887E-003
+7.124561554512623E-004
-4.192143293170955E-004
+3.280580158470219E-003
+3.324861350109231E-003
-3.013352230186216E-003
-5.532173613813920E-003
-3.282940915527644E-003
+7.119427831968052E-005
-5.149794735462758E-003
-8.110712583206387E-003
-5.594362110983441E-003
-2.951526241656788E-003
-3.442302838313819E-003
+1.864848024348553E-004
-5.026963356226349E-003
-5.080404044205268E-003
-6.401094974514130E-003
-4.016691980565262E-003
-2.176421530597153E-003
-7.960643456766352E-003
-4.443418926767720E-003
-5.094215048818947E-003
-5.400317654349184E-003
-6.580784213689314E-003
-5.512622231239455E-003
-4.960315760619988E-003
-1.626311705379203E-003
-4.671925006740480E-003
-2.253201740146205E-003
-1.098982775566529E-003
+1.835083895257927E-003
-3.767032420946034E-003
-2.058556801625203E-003
-7.324984202019779E-003
-9.233188833070541E-003
-9.516342851009413E-003
-2.574592172490212E-003
-1.332926850388147E-003
+2.931670344515275E-003
-1.980825881926406E-003
-6.962383546264645E-004
+4.999350962464251E-005
+2.757360980262492E-003
-5.769841989003362E-004
-2.948463215407052E-003
+1.893347800174097E-003
-2.807232839528564E-003
-3.200480947761347E-003
+4.080401798508843E-003
+1.104179036626758E-003
+2.322727179109673E-003
+1.793507696858490E-003
-8.636624014619627E-004
-4.277281460248112E-004
-1.677269469595205E-003
+8.456491324310582E-004
-4.624678077513477E-003
-3.776952699032554E-003
-2.979806048057811E-003
-3.663283926506169E-003
-5.544344800029008E-004
+4.356159790583233E-004
+5.717026416411909E-003
+4.945572959614508E-003
+1.121363037505795E-002
+9.767698260400377E-003
+8.324365731736387E-003
+7.281374345685041E-003
+4.001537555774545E-003
+2.692409034385753E-003
-1.432453163101678E-003
+4.459894608345859E-003
+2.633872572929867E-003
+7.294001824007405E-003
+6.830283521033241E-003
+7.117315871562934E-003
+2.896270984475982E-003
+3.052606334471416E-003
+2.137369094971002E-003
-6.116040253657025E-006
+4.216445043397834E-003
+2.532871744978745E-003
+7.646032754254782E-003
+2.996096899795101E-003
+2.728717845103207E-003
+1.690656343409274E-003
+1.564331822011623E-003
+1.260037417354956E-003
+1.070765344601428E-003
+8.430885202071114E-004
+4.636488390679852E-003
+7.889051754831483E-003
+1.230423827367938E-002
+9.419016205248583E-003
+7.114530925220440E-003
+3.913437976175811E-003
+5.490163540882088E-004
+1.318624042987597E-003
+1.897278955801486E-003
+5.805316443125156E-003
-1.712535611383487E-003
+1.999543729448340E-003
+1.006138981404549E-003
+7.834926432738368E-003
+6.607235192493886E-003
+1.183257721290080E-002
+6.491098295273990E-003
+2.597127514569354E-003
-1.198593131370730E-003
-3.270614253354891E-003
-5.223524524372380E-003
-2.441259851147003E-003
-1.898644831102472E-003
-8.793991558600727E-003
-7.132168691415208E-003
+6.167362681417311E-003
-4.733835739090164E-003
+4.202435213430515E-003
+2.318050099766480E-003
-1.310589304658410E-004
+3.474136858401915E-003
-7.867187131626756E-004
+2.034813301529529E-005
-1.758935586260584E-003
+6.299587782799215E-003
-4.721712460502735E-004
+3.678365175782918E-003
-6.458574235150375E-003
+4.920572671521416E-004
-2.868953383786376E-003
-1.890873195160221E-003
+8.248908508622086E-004
+7.616991340523924E-004
+2.846754257953550E-003
+1.882076872689484E-003
+3.926080093696365E-003
+4.613708840032388E-003
+4.818719400738909E-003
+3.787894122861463E-003
+3.018299499578559E-003
+2.120065689915151E-003
+1.627068734659148E-003
+1.877495847936017E-004
+2.862579355953936E-003
+2.193940586969133E-003
+2.802389789535381E-003
+4.565287933320622E-003
+3.487621119440719E-003
+3.362485091979467E-003
+1.822053092164175E-003
+2.332511675818646E-003
+2.936504475304454E-003
+2.142906310640312E-003
+3.002970084859522E-003
+2.317578801704315E-003
+2.310514250897041E-003
+2.306144499597699E-003
+1.810399675143713E-003
+2.124964783784886E-003
+1.721767968438994E-003
+1.425616715969453E-003
+1.549039995810334E-003
+2.400816265964663E-003
+4.044713465155979E-003
+4.514823429768173E-003
+5.349111930649963E-003
+3.419970090487202E-003
+2.069171022677038E-003
+1.488538267237104E-003
+1.474551949938748E-004
+1.703491739978868E-003
+9.063958362051911E-004
+1.294496161792174E-003
-3.351689588885003E-004
+2.456299024196911E-003
+3.209096228958012E-003
+5.223163463842410E-003
+3.755593301271475E-003
+4.318131620792125E-003
+5.720816636002788E-004
+1.564479748869324E-004
-9.083757885919277E-004
-8.136802933935132E-004
-5.469614044837025E-004
-1.436334073096024E-003
-1.627337233947028E-003
-3.289776905600647E-005
-5.790255246917030E-004
+2.133985618545977E-003
+5.318971983365602E-004
+2.209855920507452E-003
+3.653173141967030E-004
+7.437439813827187E-004
+8.158885285566931E-004
+6.231650776207574E-005
+1.706089877480581E-003
+8.868326170833591E-004
+2.729247669128504E-003
-7.655762531123760E-005
+1.057304291977402E-003
-1.328936886879738E-003
+4.095730975308499E-004
+1.835361234874274E-004
+1.215006286127879E-003
+1.857217626953144E-003
+2.010605555453151E-003
+2.630541168035708E-003
+2.373914374900195E-003
+2.582308366915197E-003
+2.353074492782855E-003
+2.076650215369125E-003
+1.643095274087808E-003
+1.356442804635948E-003
+9.312847259499222E-004
+1.091723181118146E-003
+1.659452372905489E-003
+2.084869244750147E-003
+2.559252779397864E-003
+2.488813770612235E-003
+2.667371900003623E-003
+1.811264493351328E-003
+1.980885144767042E-003
+1.571655796380869E-003
+1.615491470314377E-003
+1.628095587940406E-003
+1.260449251465207E-003
+1.634081867728391E-003
+1.743952907627025E-003
+1.379406352550106E-003
+1.891456093467822E-003
+1.323857547239672E-003
+1.611945082699566E-003
+1.129497237162327E-003
+1.310177902368965E-003
+1.681107682148195E-003
+1.880553540401456E-003
+2.356237724811660E-003
+1.953322461620200E-003
+1.846161674314039E-003
+1.198311188064679E-003
+5.977638398311181E-004
+9.112240809671419E-004
+7.416213265202009E-004
+1.059942979615433E-003
+8.454944405461505E-004
+1.272218212209611E-003
+1.548599367048736E-003
+2.205113378134936E-003
+2.125219208320321E-003
+2.216397364522710E-003
+1.424310814707758E-003
+7.400648172770221E-004
+7.476709048121954E-004
+4.743681968774763E-004
+8.465744195799815E-004
+7.119371667498314E-004
+9.088272846416430E-004
+7.863746588426266E-004
+9.499667518698926E-004
+1.536439102978420E-003
+9.079205550610117E-004
+1.417310270571677E-003
+8.405957487894121E-004
+9.543378700928205E-004
+1.517442519114511E-003
+1.291149035598510E-003
+1.801495172646970E-003
+1.435425251335600E-003
+2.035100095315746E-003
+1.336009198386323E-003
+1.637184986700583E-003
+8.402763369033595E-004
+8.388149778537752E-004
+5.803739887570235E-004
+7.909669850803919E-004

