# Electrode atom charges in atomic unit
# -------------------------------------
# Charge:   1 au = 1.602176565e-19 C = 1 e
# step        0
-1.145285276925569E-003
-6.498646380060963E-004
-1.208050038037187E-003
+4.413937146156368E-004
+1.593271819128918E-005
+1.667064749921809E-003
+1.779671738287723E-003
+9.272006930514730E-004
+6.972551236274251E-004
+6.761586575976079E-005
-1.481776528343207E-004
-3.476391686928039E-004
+2.450939305673680E-004
+6.914608210940345E-004
+8.643054320390618E-004
+1.491820197955950E-003
+1.446534709942817E-003
+6.570956510304843E-005
+2.351118287206345E-004
-6.358218034616471E-004
-4.407032838557746E-004
+1.011446879734897E-003
+5.536300550953947E-004
+1.339035464348949E-003
+1.400502495217000E-003
+1.211369559722546E-003
+1.050368765529433E-003
+1.283952264003330E-003
+8.449913744495853E-004
+4.008526140410282E-005
-7.627552274272519E-004
+4.265071569474734E-004
+1.519876355013208E-003
+3.461155381145955E-003
+2.625158173866387E-003
+2.705279070408050E-003
+1.444355886403116E-003
-1.885935030999878E-004
+8.545693023119735E-004
-7.755063427160140E-005
+9.989717406942858E-004
-1.069333196014214E-003
-6.563990404512927E-004
-9.241951043709772E-004
+1.969819763141251E-003
+1.967647797043757E-003
+3.415616554795308E-003
+1.793572267904334E-003
-3.952918548676132E-006
-1.288085609006402E-003
-1.845810386212069E-003
-2.381169824179651E-003
-1.551106395273878E-003
-2.720623997902242E-003
-3.096606825635815E-003
-3.033433838555796E-003
-6.652566288490105E-004
-1.515453661571312E-003
+4.345726189055460E-004
-4.839563667729807E-004
-5.867008752595479E-004
-9.751597296077386E-004
-1.631861357591018E-003
-1.851342351487664E-003
-1.928625124009271E-003
-9.269368354521829E-005
-1.952993598672931E-003
-1.207835720273692E-004
-2.363742514980088E-003
-9.612589744182540E-004
-1.356121059767151E-003
-6.585551169773080E-004
-2.742798165443011E-003
+8.361722710495956E-004
+1.355386856419616E-003
-1.836353594281748E-003
-4.438282195937948E-004
-4.780421120546399E-003
-5.931861149013784E-003
+7.737595265640551E-004
-6.472540888216999E-004
-3.775420171372945E-003
-3.194137459047175E-004
+2.084098823081304E-003
+3.181112185944551E-003
-1.736620756253054E-003
-1.682043391958210E-003
+1.792613560085088E-003
+3.153996324023814E-003
+1.773886428397223E-003
-6.821685701746127E-004
+4.188574163705022E-004
+7.423573930998559E-003
+4.760672143951816E-003
-7.249343024485655E-003
-7.143493866640649E-003
-9.668292113999000E-004
+2.682857158018179E-003
-1.612138650237474E-003
+1.035026526799113E-003
-3.977233508346903E-003
-2.861505709142037E-003
+2.063420994505655E-003
-3.846239040555435E-003
-3.662923466645387E-003
-3.264340298875720E-003
+7.190249575483573E-003
-1.789759680468891E-003
-3.216200295596897E-003
-2.652539985718350E-003
-2.737029507992872E-004
-6.017729383395176E-004
-1.090265825030273E-003
-2.799142648679531E-005
+8.842818418544340E-004
+1.776074490431739E-003
-3.278823979197501E-003
-1.166274428461345E-003
-2.334376720462647E-003
-6.842667994462509E-003
-1.057679342641013E-002
-6.959824436701678E-004
+5.364554671252852E-003
-3.553313683550968E-004
+2.679727947073413E-003
-5.377088439375732E-003
+3.610413259811374E-003
+8.937786935500763E-004
-2.234722766451811E-003
+5.046315468493005E-004
+5.701632217096034E-003
+6.459106202365398E-003
+1.404556385405063E-003
+4.274175321727918E-003
+1.542369397048279E-003
-7.036146454422179E-005
+9.036060748470685E-003
-1.176291817395404E-003
-8.788787323421952E-003
+6.252625095943900E-003
+8.396919070509733E-003
-2.974496890457745E-004
-1.750682520275258E-003
-3.358165674335296E-003
+5.226367011007230E-002
-1.119753108973663E-003
-5.176263305376561E-003
-2.198935796492420E-002
-1.698803811708850E-002
-4.364841492337961E-002
-4.586571671178779E-002
-4.548976983301251E-003
-4.171304351875025E-002
+6.361499247126168E-003
-2.806841275035713E-002
+4.107235970483463E-003
-3.441793156710581E-002
+3.007499821271325E-002
-1.547347396341553E-004
+5.520028453159177E-002
+6.451433677318817E-002
-1.200388238402086E-002
-4.225412071230688E-002
-2.287707539834032E-003
+4.144149379561146E-002
-1.932772723566516E-002
-6.866944418767996E-002
-3.011155779838557E-002
-3.145438426762148E-003
-9.744475282588268E-003
+2.141443641413900E-002
-3.373653466289087E-002
-4.239767612557541E-002
-4.776927613190617E-002
-1.472897134710004E-002
+8.313500147650569E-003
-6.588779066182515E-002
-7.750738948680233E-003
-1.406543298422903E-002
-1.880682170805081E-002
-3.515790862774774E-002
-2.506554609744091E-002
-2.982450592834423E-002
+1.179414846287235E-002
-2.382688519198693E-002
-6.437071698234807E-003
+1.305992625823645E-002
+4.217289039221147E-002
-2.567573888305586E-002
+5.941439181861520E-004
-5.090860614784631E-002
-7.849455369530157E-002
-8.440292061026099E-002
-6.608512481430299E-003
+9.382964170439739E-003
+4.817704487933513E-002
-1.240682392506635E-002
-2.285173526620918E-003
+6.707355083471515E-003
+4.576866744511080E-002
+3.766520588464589E-003
-2.430415352085953E-002
+6.704161607916782E-002
-7.097293854703176E-004
-2.653941186130791E-002
+6.416434897027330E-002
+1.411261386171776E-002
+3.377114884712516E-002
+2.460965500088537E-002
+4.271896693538129E-003
+5.399417038226906E-003
+6.221186448990908E-003
+3.179452545720982E-002
-3.164395293495544E-002
-2.055354448913123E-002
-1.757784600027890E-002
-5.865641242781319E-002
-3.286431815479807E-002
-1.838270873629909E-002
+2.841068783255574E-002
+1.551850181712055E-002
+9.202136069714169E-002
+7.100053171761884E-002
+5.989904006331519E-002
+6.023951358129552E-002
+1.859392221687367E-002
+2.334850961685025E-002
-4.311849793910436E-002
+3.380867325506252E-002
-4.865005364179270E-003
+6.086827540327704E-002
+4.640689702818288E-002
+3.614619781973740E-002
-2.667953538432908E-004
-1.507192172574019E-002
-1.129805419819220E-002
-5.006068468302933E-002
+3.964645713137508E-003
-5.531712591503491E-003
+5.836793142987410E-002
-9.301059260658245E-003
+7.787994731966171E-003
-1.244960547807831E-002
-5.303754320082184E-003
-1.764476876182594E-002
-8.228188254988347E-003
-1.998734263452023E-002
+1.821450027741880E-002
+5.150415254185452E-002
+8.876682935340800E-002
+5.655381781651100E-002
+3.100932952301284E-002
+9.431666430975703E-003
-1.089015311375038E-002
-3.154032524524624E-003
+2.025739666976973E-002
+6.604234353610014E-002
-2.697151451739023E-002
+4.440678532984533E-003
-7.343744401875033E-003
+4.956777567283031E-002
+2.910426993558861E-002
+8.659153005965370E-002
+3.530215930551122E-002
+1.332472219966068E-002
-1.633150695691170E-002
-3.650161134458117E-002
-5.919713161440422E-002
-2.311913301461691E-002
-3.748038481632694E-003
-1.072121221092331E-001
-8.502304281732492E-002
+8.800467392737514E-002
-6.732661679120196E-002
+2.450888716972443E-002
+1.963723985969635E-002
-7.628331514628009E-003
+4.930247493275376E-002
-7.600950151859125E-003
-1.445629909360613E-002
-2.677166847965267E-002
+5.459548359911417E-002
-1.019689668764929E-002
+2.358281154566567E-002
-8.339039747172182E-002
-6.029818638850909E-004
-3.856126273569480E-002
-2.694881471936037E-002
-4.838546960004436E-004
-2.186064734648704E-003
+5.963425237158676E-003
-5.998952057205922E-003
-2.160560955792326E-003
+7.282294935039055E-003
+9.455547380969390E-003
+2.531067290616820E-003
+2.988499706117628E-003
+3.193099412904007E-003
+1.956846775870894E-003
-1.674683527443904E-003
+2.657830188671911E-003
-3.203293800608575E-003
-2.591090872900395E-003
+1.074667680107083E-002
+7.757184318076690E-003
-3.578334765060198E-003
-2.492132059791166E-003
-3.711868006868374E-003
+6.071146015388398E-003
+2.704702875981624E-004
-3.451088727144183E-003
+3.570999682270953E-003
-5.035981477239854E-003
+2.879434230729214E-003
+3.164325728564454E-003
-1.556637766398902E-003
+1.199066390589462E-003
-2.573369597938621E-003
-1.363366782241568E-003
-1.141869925228897E-003
-1.903107988283595E-003
+3.052664971547922E-003
+5.082439679926901E-003
-3.180526625595315E-003
+1.994899247041701E-003
+1.283285116314703E-004
-4.556021643919703E-003
+3.849299737933215E-003
+4.742290523401999E-003
+1.934325466672993E-003
-5.977954423182094E-003
+1.204227253972609E-003
+4.203176731997924E-003
+5.832218591195287E-003
-6.014623548154657E-004
+8.269018155710947E-003
-2.699440973234768E-003
-1.542431796009797E-003
-6.324158826477619E-003
-5.151113959095122E-003
+6.341106442210864E-004
-7.352853748793686E-003
-8.248539758470147E-003
+1.740562529048514E-003
-1.793056087572242E-003
+3.189298305853960E-003
+4.314209245847439E-004
+2.484960904269584E-003
+1.315594642725681E-004
+3.046752098190955E-003
-3.286956335275842E-003
+8.748083786752348E-004
-2.844860619039574E-003
+1.417127487240821E-003
+6.996432203499603E-004
+1.725494762027477E-003
-1.005607835545805E-003
-1.079346359559804E-002
+2.409939003323869E-003
-3.542825746214728E-004
+1.381774180510262E-003
+1.029643970271568E-003
+1.348874232270460E-003
+2.886086591676329E-004
-4.288247417058716E-004
-1.260568035777565E-003
-1.340164622502540E-003
-4.915053683281628E-004
-3.366242237567152E-004
-9.597442801407563E-004
-9.105330674055445E-004
-5.339292788410638E-004
-1.744057962559803E-004
+1.159796337533284E-003
+8.356113670734688E-004
+6.884031354571357E-004
+1.850910267066352E-005
-5.126149061012164E-004
-4.154849791677823E-004
-1.209720310692414E-004
+1.265274382285519E-004
-1.509637009024914E-003
-1.896591073977508E-003
-1.702862031149777E-003
+6.517547162060433E-005
-9.827037946202877E-005
+9.717190795995034E-004
-6.588958345800366E-004
-6.611448358584543E-004
-9.970117105655846E-004
-7.601476581194228E-004
-5.822028618597541E-004
-1.301015149622012E-003
-1.993156882830055E-003
-2.245706418340737E-003
-1.778016715579131E-003
-1.994745914860513E-003
-1.514426279935296E-003
-8.603876125129195E-004
-2.878563054226069E-004
-8.151301657477739E-004
+1.101665224835527E-003
+5.670005251912635E-004
+1.402499874605029E-003
-6.174957039748047E-004
-6.768692361539819E-004
-2.190476196153035E-003
-2.234858661171076E-003
-1.583040906912990E-003
+5.319560484076113E-004
+1.382214248037000E-004
+1.735035022266344E-003
+1.237509733275063E-003
+1.938713133988780E-003
+2.668743481972075E-003
+2.820081900001728E-003
+1.044570667288615E-003
+1.039182932914176E-003
-3.806413139422864E-004
-4.354156440891949E-004
+7.516157742528777E-004
+1.908991752651308E-003
+1.989675039628935E-003
+1.256798611235448E-003
+1.589596508194614E-003
-2.405816811851640E-004
+1.615680909757930E-003
+6.513425230385839E-004
+1.818710496212558E-003
-2.117443409369313E-004
+6.055105812428734E-006
+3.618526238678716E-004

# step        1
-1.142769617721241E-003
-6.551413128083037E-004
-1.210800951516107E-003
+4.578563353516668E-004
+4.891264565473272E-005
+1.697623381340089E-003
+1.808952586452991E-003
+1.000084925183064E-003
+7.667565415404309E-004
+1.596046841292424E-004
-8.424741574432695E-005
-2.893609720474701E-004
+2.629854262680077E-004
+6.566962220018582E-004
+8.361678436808475E-004
+1.452925280496229E-003
+1.452126088430030E-003
+7.907315622560123E-005
+2.926260237382456E-004
-5.696090164853373E-004
-3.517466938783055E-004
+1.062809486110045E-003
+6.195741786498116E-004
+1.368290299834779E-003
+1.383546871525885E-003
+1.161574795896744E-003
+9.731121010168299E-004
+1.234884195940542E-003
+8.098350045099428E-004
+4.527286115271496E-005
-7.441377242230138E-004
+4.278318258633328E-004
+1.549011670566080E-003
+3.449312129534735E-003
+2.644853805888267E-003
+2.713666110980440E-003
+1.455401195526809E-003
-1.916565904306246E-004
+8.167715762638725E-004
-7.751539815879088E-005
+1.024896443568674E-003
-9.949306132338420E-004
-6.092474782475521E-004
-9.627676432632992E-004
+1.905953999987241E-003
+1.901247299043356E-003
+3.429125719302106E-003
+1.847939742498639E-003
+1.964864086314091E-005
-1.352973158587550E-003
-1.897802619802198E-003
-2.439759645203748E-003
-1.535964808264668E-003
-2.730206120112183E-003
-3.089090922638541E-003
-3.086826161346111E-003
-7.836804791942140E-004
-1.575328211345275E-003
+4.284308878634013E-004
-4.742945936623277E-004
-6.379615079379689E-004
-1.023103785845046E-003
-1.710992375405854E-003
-1.855219182561693E-003
-1.962307280965268E-003
-9.855959814422666E-005
-1.976226734751826E-003
-1.020591957912945E-004
-2.388770283526020E-003
-9.271126632661025E-004
-1.363044945723202E-003
-6.567754428081912E-004
-2.730381940180604E-003
+7.291928511122259E-004
+1.330508059878457E-003
-1.902218520331470E-003
-5.464728174814498E-004
-4.654845322845588E-003
-5.959499143366548E-003
+7.586181378456958E-004
-6.158453859690938E-004
-3.774749696974153E-003
-4.041094286072883E-004
+2.242039189974385E-003
+3.122420349983224E-003
-1.740296014825310E-003
-1.589324916510197E-003
+1.750944988426206E-003
+3.214896496255955E-003
+1.784382896300035E-003
-7.008226117354438E-004
+3.944030141074112E-004
+7.199748834645095E-003
+4.668613207672909E-003
-7.185655526692022E-003
-7.104860374951436E-003
-9.025293640722021E-004
+2.674807222978734E-003
-1.554304822204061E-003
+1.093705218060778E-003
-4.059356207890399E-003
-2.860192504113568E-003
+2.063457077925379E-003
-3.908605910590626E-003
-3.593551450811250E-003
-3.610732724530205E-003
+6.816981969032826E-003
-1.726849058448943E-003
-3.089307142750422E-003
-2.480267359044913E-003
-2.177566358786548E-004
-6.759670365517334E-004
-1.115550082593258E-003
-1.124572411209529E-004
+8.811086276038216E-004
+1.801265913387917E-003
-3.341074298187960E-003
-1.047805876047303E-003
-2.251711813438764E-003
-6.910533523667967E-003
-1.002511241640228E-002
-8.178215982507925E-004
+5.189734775787019E-003
-3.812907487144440E-004
+2.651044436592809E-003
-5.216117495778022E-003
+3.692421475083432E-003
+9.084823257066860E-004
-2.205039515755426E-003
+4.271275932320978E-004
+5.576778835045073E-003
+6.585769316750476E-003
+1.390092455877979E-003
+4.294443094746756E-003
+1.559923476875257E-003
-1.666623406388311E-005
+9.259374670298644E-003
-1.173796109288205E-003
-8.927180598461978E-003
+6.063685122092774E-003
+8.419020605515578E-003
-2.252596440808647E-004
-1.672923139038982E-003
-3.288401633628484E-003
+5.199857460199052E-002
-1.982900108967626E-003
-4.221527099321531E-003
-2.330079295177587E-002
-1.806226307182634E-002
-4.324391216026950E-002
-4.710995561118401E-002
-5.354503593024815E-003
-4.047333983209074E-002
+5.363401896707882E-003
-2.688032592342808E-002
+4.884107614000845E-003
-3.427362213834588E-002
+3.030990202678011E-002
-6.187116485547989E-004
+5.647791145867490E-002
+6.459340552755605E-002
-1.140029046613363E-002
-4.140147982095816E-002
-3.953636270702869E-003
+4.088584412924341E-002
-2.194777575525777E-002
-6.882455911745727E-002
-2.986432020623811E-002
-3.929533940459472E-003
-9.083364391174431E-003
+2.231179160720751E-002
-3.354473658369804E-002
-4.102830324687815E-002
-4.950597587644150E-002
-1.493573731408576E-002
+9.291068104399527E-003
-6.891574738067478E-002
-9.750674929755449E-003
-1.781476518454576E-002
-2.123889799633596E-002
-3.274927916583072E-002
-2.356009235222415E-002
-2.800088753403934E-002
+1.059065572245562E-002
-2.562290800515358E-002
-7.090749066066826E-003
+1.187682367438820E-002
+4.186452913144701E-002
-2.447713656767403E-002
+1.475836660976138E-003
-5.195122542965185E-002
-7.486033278157263E-002
-8.291546654439784E-002
-6.035437314805762E-003
+7.574049850827785E-003
+4.786918017161809E-002
-1.339405289429420E-002
-1.978026315837675E-003
+8.180408585244403E-003
+4.561856493925065E-002
+2.229073472792321E-003
-2.481984450932347E-002
+6.619634431602374E-002
+3.168779215879385E-004
-2.309486637807400E-002
+6.183148271800470E-002
+1.293269636887856E-002
+3.374727346484284E-002
+2.573928182844354E-002
+6.292798589400694E-003
+3.577171855243602E-003
+2.444082205659432E-003
+3.199663850089791E-002
-3.017000658730707E-002
-1.950608215745881E-002
-1.525037756436442E-002
-5.765779027481334E-002
-3.281755489530307E-002
-1.789677781991779E-002
+2.908362524708442E-002
+1.665348058470740E-002
+9.173396226558739E-002
+7.092159796178110E-002
+6.182798902734881E-002
+6.202226309512697E-002
+2.100021387392366E-002
+2.555857808661001E-002
-3.950382825160473E-002
+3.342357641067469E-002
-5.868767407113834E-003
+5.844377002740824E-002
+4.814979818756029E-002
+3.708279160109447E-002
+9.336202562896037E-004
-1.332695303173177E-002
-8.468130649792462E-003
-4.666034810561239E-002
+5.050693599980658E-003
-3.646355506897760E-003
+5.768594107238280E-002
-7.713824261396907E-003
+7.030071558614995E-003
-1.306301037154207E-002
-7.107713847149259E-003
-1.732981053958286E-002
-1.083713353688199E-002
-1.982790868459901E-002
+1.843556191902243E-002
+5.163091424270475E-002
+8.829083177952469E-002
+5.805882695992191E-002
+3.063694184633923E-002
+1.055789984183832E-002
-9.211066208304744E-003
-2.343634148554784E-003
+2.060749640749837E-002
+6.547346747249759E-002
-2.302192078545631E-002
+9.622055887294291E-003
-5.688754819035163E-003
+4.695934636551561E-002
+2.845963033529475E-002
+8.745696742509169E-002
+3.754596122214311E-002
+1.488696641032666E-002
-1.802573231573503E-002
-4.126631242319564E-002
-6.075155596727241E-002
-2.265271174414434E-002
-7.035003909643150E-003
-1.085445297548478E-001
-8.565349569977493E-002
+8.052062637008492E-002
-7.089525379926155E-002
+2.529538400303357E-002
+2.001921412096615E-002
-8.369172511523824E-003
+4.709866454621214E-002
-9.355872483146933E-003
-1.468410700189403E-002
-2.842403038617182E-002
+5.230626787820188E-002
-1.082791628373140E-002
+2.346773859837486E-002
-8.401609925933456E-002
-4.900603944850493E-004
-3.763906401632607E-002
-2.666745907737354E-002
-5.472890724519536E-004
-2.218200535885007E-003
+5.881265305991007E-003
-5.792695418833288E-003
-2.115699683417030E-003
+7.313205233688808E-003
+9.275722505392950E-003
+2.485931817892473E-003
+3.135313367547937E-003
+3.328027513058912E-003
+2.078608216575947E-003
-1.576351866693110E-003
+2.689148216171472E-003
-3.246124687321203E-003
-2.589322336527131E-003
+1.053958914673397E-002
+7.815787679430100E-003
-3.460996242448222E-003
-2.387455839039265E-003
-3.465644591766903E-003
+6.047506959504387E-003
+2.243105966587694E-004
-3.359255000398617E-003
+3.582194754013932E-003
-4.855635920647500E-003
+2.687324035100622E-003
+3.070402104126235E-003
-1.449951352165788E-003
+1.075023015601334E-003
-2.602065633080852E-003
-1.533753435781299E-003
-1.037160606947571E-003
-1.909268409549400E-003
+3.145615696801260E-003
+5.159044620763734E-003
-3.118194822040676E-003
+2.026990923904223E-003
+2.508684496454888E-004
-4.479656141150035E-003
+3.785982708187516E-003
+4.801016898111299E-003
+1.972827538798710E-003
-5.174849933951939E-003
+1.374618167382796E-003
+3.980615008702365E-003
+5.721644912219839E-003
-4.509461450998703E-004
+8.186232258374726E-003
-2.672511996515761E-003
-1.575602967109915E-003
-6.412276780253953E-003
-5.156599071573828E-003
+6.239403042815062E-004
-7.343324938914098E-003
-8.470916869496983E-003
+1.695296838242766E-003
-1.915937297330264E-003
+2.896792917573027E-003
+4.484782998895320E-004
+2.577936097645284E-003
+4.703422325114115E-005
+2.996266833198924E-003
-3.300145038801341E-003
+8.611646850530397E-004
-2.799762991055360E-003
+1.267829552862226E-003
+6.852356745610522E-004
+1.792108510258433E-003
-9.959753542203020E-004
-1.073595618436032E-002
+2.383063486418702E-003
-4.226728009059239E-004
+1.397461826210811E-003
+1.018727454517171E-003
+1.325888819427586E-003
+2.741414100622397E-004
-4.274819506018129E-004
-1.266618175972609E-003
-1.373564938924474E-003
-5.309769822504223E-004
-3.487892949426835E-004
-9.449771251611866E-004
-8.384464491711999E-004
-4.868605148433541E-004
-1.696050602900678E-004
+1.166211145497781E-003
+8.382158758619002E-004
+7.234687184977245E-004
+3.313217533097712E-005
-5.038203281030468E-004
-4.423497637395662E-004
-1.809852979438864E-004
+8.036977992521843E-005
-1.576292921165026E-003
-1.881477683557717E-003
-1.717338624949633E-003
+4.859465007917008E-005
-4.836704493131616E-005
+1.010097760641357E-003
-6.400044042273040E-004
-6.524658605554373E-004
-1.045843207776606E-003
-7.885934794815835E-004
-5.960521050760170E-004
-1.362287263834056E-003
-2.020039096772522E-003
-2.320661385850714E-003
-1.795347809515443E-003
-1.928687289337844E-003
-1.459318447602651E-003
-8.231172462172393E-004
-3.192592409323319E-004
-8.782920073905909E-004
+1.032036510839343E-003
+5.166782315891849E-004
+1.419345931139765E-003
-5.833005369506594E-004
-6.178607440322503E-004
-2.164317351769959E-003
-2.166031167560846E-003
-1.540428625694541E-003
+5.245474125728095E-004
+1.321696811847767E-004
+1.716490319900690E-003
+1.192304098359367E-003
+1.942401830281139E-003
+2.658830721970692E-003
+2.792888100263277E-003
+1.075702501910435E-003
+1.059662738631039E-003
-3.275452665987243E-004
-3.931799509400650E-004
+7.705990561652047E-004
+1.898780704571851E-003
+1.972563892801517E-003
+1.266197565246974E-003
+1.615272987214637E-003
-2.319244779846359E-004
+1.586006638071728E-003
+6.023007207256251E-004
+1.790137675337807E-003
-1.845367788756158E-004
+4.660496568923735E-005
+4.158802301730772E-004

