# Stress tensor of the system
# ----------------
# Pressure:   1 bar = 3.3988273773641905e-09 ua
# step        xx component            yy component            zz component            xy component            xz component            yz component      
       0  3.173701560725426E-005  1.812141826047351E-005  1.977354327494992E-005  5.495340942417680E-008 -5.251427540595040E-006 -1.860778871625233E-006
